<?xml version="1.0" encoding="UTF-8" standalone="no"?>
<svg 
   width="307.91998pt"
   height="211.92pt"
   viewBox="0 0 307.91998 211.92"
   version="1.1"
   id="svg230"
   xmlns:xlink="http://www.w3.org/1999/xlink"
   xmlns="http://www.w3.org/2000/svg"
   xmlns:svg="http://www.w3.org/2000/svg" content="%3Cmxfile%20host%3D%22app.diagrams.net%22%20modified%3D%222023-11-12T18%3A04%3A57.336Z%22%20agent%3D%22Mozilla%2F5.0%20(Windows%20NT%2010.0%3B%20Win64%3B%20x64)%20AppleWebKit%2F537.36%20(KHTML%2C%20like%20Gecko)%20Chrome%2F119.0.0.0%20Safari%2F537.36%20Edg%2F119.0.0.0%22%20etag%3D%22LuMt_o0olL7UOsfxw574%22%20version%3D%2222.1.0%22%20type%3D%22onedrive%22%3E%20%20%20%3Cdiagram%20name%3D%22P%C3%A1gina-1%22%20id%3D%22LbMMRLChefhSKnUHQdBG%22%3E%20%20%20%20%20%3CmxGraphModel%20dx%3D%22691%22%20dy%3D%22388%22%20grid%3D%221%22%20gridSize%3D%2210%22%20guides%3D%221%22%20tooltips%3D%221%22%20connect%3D%221%22%20arrows%3D%221%22%20fold%3D%221%22%20page%3D%220%22%20pageScale%3D%221%22%20pageWidth%3D%221100%22%20pageHeight%3D%22850%22%20math%3D%220%22%20shadow%3D%220%22%3E%20%20%20%20%20%20%20%3Croot%3E%20%20%20%20%20%20%20%20%20%3CmxCell%20id%3D%220%22%20%2F%3E%20%20%20%20%20%20%20%20%20%3CmxCell%20id%3D%221%22%20parent%3D%220%22%20%2F%3E%20%20%20%20%20%20%20%20%20%3CmxCell%20id%3D%22Zhi-iH-fIv--cLj7lgiU-1%22%20value%3D%22%22%20style%3D%22endArrow%3Dnone%3Bhtml%3D1%3Brounded%3D0%3BstrokeWidth%3D2%3BfontSize%3D10.9%3BfontFamily%3DNimbus%20Roman%20No9%20L%3BfontSource%3Dhttps%253A%252F%252Fwww.1001fonts.com%252Fdownload%252Ffont%252Fnimbus-roman-no9-l.regular.otf%3B%22%20parent%3D%221%22%20edge%3D%221%22%3E%20%20%20%20%20%20%20%20%20%20%20%3CmxGeometry%20width%3D%2250%22%20height%3D%2250%22%20relative%3D%221%22%20as%3D%22geometry%22%3E%20%20%20%20%20%20%20%20%20%20%20%20%20%3CmxPoint%20x%3D%2240%22%20y%3D%22400%22%20as%3D%22sourcePoint%22%20%2F%3E%20%20%20%20%20%20%20%20%20%20%20%20%20%3CmxPoint%20x%3D%22360%22%20y%3D%22400%22%20as%3D%22targetPoint%22%20%2F%3E%20%20%20%20%20%20%20%20%20%20%20%3C%2FmxGeometry%3E%20%20%20%20%20%20%20%20%20%3C%2FmxCell%3E%20%20%20%20%20%20%20%20%20%3CmxCell%20id%3D%22Zhi-iH-fIv--cLj7lgiU-2%22%20value%3D%22%22%20style%3D%22endArrow%3Dclassic%3Bhtml%3D1%3Brounded%3D0%3BstrokeWidth%3D2%3BendFill%3D1%3BfontSize%3D10.9%3BfontFamily%3DNimbus%20Roman%20No9%20L%3BfontSource%3Dhttps%253A%252F%252Fwww.1001fonts.com%252Fdownload%252Ffont%252Fnimbus-roman-no9-l.regular.otf%3BstrokeColor%3D%23ff1818%3B%22%20parent%3D%221%22%20edge%3D%221%22%3E%20%20%20%20%20%20%20%20%20%20%20%3CmxGeometry%20width%3D%2250%22%20height%3D%2250%22%20relative%3D%221%22%20as%3D%22geometry%22%3E%20%20%20%20%20%20%20%20%20%20%20%20%20%3CmxPoint%20x%3D%2239.5%22%20y%3D%22400%22%20as%3D%22sourcePoint%22%20%2F%3E%20%20%20%20%20%20%20%20%20%20%20%20%20%3CmxPoint%20x%3D%2239.5%22%20y%3D%22520%22%20as%3D%22targetPoint%22%20%2F%3E%20%20%20%20%20%20%20%20%20%20%20%3C%2FmxGeometry%3E%20%20%20%20%20%20%20%20%20%3C%2FmxCell%3E%20%20%20%20%20%20%20%20%20%3CmxCell%20id%3D%22Zhi-iH-fIv--cLj7lgiU-3%22%20value%3D%220%22%20style%3D%22text%3Bhtml%3D1%3BstrokeColor%3Dnone%3BfillColor%3Dnone%3Balign%3Dcenter%3BverticalAlign%3Dmiddle%3BwhiteSpace%3Dwrap%3Brounded%3D0%3BfontSize%3D10.9%3BstrokeWidth%3D2%3BfontFamily%3DNimbus%20Roman%20No9%20L%3BfontSource%3Dhttps%253A%252F%252Fwww.1001fonts.com%252Fdownload%252Ffont%252Fnimbus-roman-no9-l.regular.otf%3B%22%20parent%3D%221%22%20vertex%3D%221%22%3E%20%20%20%20%20%20%20%20%20%20%20%3CmxGeometry%20y%3D%22395%22%20width%3D%2260%22%20height%3D%2230%22%20as%3D%22geometry%22%20%2F%3E%20%20%20%20%20%20%20%20%20%3C%2FmxCell%3E%20%20%20%20%20%20%20%20%20%3CmxCell%20id%3D%22Zhi-iH-fIv--cLj7lgiU-4%22%20style%3D%22edgeStyle%3DorthogonalEdgeStyle%3Brounded%3D0%3BorthogonalLoop%3D1%3BjettySize%3Dauto%3Bhtml%3D1%3BexitX%3D0.5%3BexitY%3D1%3BexitDx%3D0%3BexitDy%3D0%3BfontSize%3D10.9%3BstrokeWidth%3D2%3BfontFamily%3DNimbus%20Roman%20No9%20L%3BfontSource%3Dhttps%253A%252F%252Fwww.1001fonts.com%252Fdownload%252Ffont%252Fnimbus-roman-no9-l.regular.otf%3B%22%20parent%3D%221%22%20source%3D%22Zhi-iH-fIv--cLj7lgiU-3%22%20target%3D%22Zhi-iH-fIv--cLj7lgiU-3%22%20edge%3D%221%22%3E%20%20%20%20%20%20%20%20%20%20%20%3CmxGeometry%20relative%3D%221%22%20as%3D%22geometry%22%20%2F%3E%20%20%20%20%20%20%20%20%20%3C%2FmxCell%3E%20%20%20%20%20%20%20%20%20%3CmxCell%20id%3D%22Zhi-iH-fIv--cLj7lgiU-5%22%20value%3D%22%22%20style%3D%22endArrow%3Dclassic%3Bhtml%3D1%3Brounded%3D0%3BfontSize%3D10.9%3BstrokeWidth%3D2%3BendFill%3D1%3BfontFamily%3DNimbus%20Roman%20No9%20L%3BfontSource%3Dhttps%253A%252F%252Fwww.1001fonts.com%252Fdownload%252Ffont%252Fnimbus-roman-no9-l.regular.otf%3BstrokeColor%3D%231aff1f%3B%22%20parent%3D%221%22%20edge%3D%221%22%3E%20%20%20%20%20%20%20%20%20%20%20%3CmxGeometry%20width%3D%2250%22%20height%3D%2250%22%20relative%3D%221%22%20as%3D%22geometry%22%3E%20%20%20%20%20%20%20%20%20%20%20%20%20%3CmxPoint%20x%3D%22120%22%20y%3D%22400%22%20as%3D%22sourcePoint%22%20%2F%3E%20%20%20%20%20%20%20%20%20%20%20%20%20%3CmxPoint%20x%3D%22120%22%20y%3D%22360%22%20as%3D%22targetPoint%22%20%2F%3E%20%20%20%20%20%20%20%20%20%20%20%3C%2FmxGeometry%3E%20%20%20%20%20%20%20%20%20%3C%2FmxCell%3E%20%20%20%20%20%20%20%20%20%3CmxCell%20id%3D%22Zhi-iH-fIv--cLj7lgiU-6%22%20value%3D%22%22%20style%3D%22endArrow%3Dclassic%3Bhtml%3D1%3Brounded%3D0%3BfontSize%3D10.9%3BstrokeWidth%3D2%3BendFill%3D1%3BfontFamily%3DNimbus%20Roman%20No9%20L%3BfontSource%3Dhttps%253A%252F%252Fwww.1001fonts.com%252Fdownload%252Ffont%252Fnimbus-roman-no9-l.regular.otf%3BstrokeColor%3D%231AFF1F%3B%22%20parent%3D%221%22%20edge%3D%221%22%3E%20%20%20%20%20%20%20%20%20%20%20%3CmxGeometry%20width%3D%2250%22%20height%3D%2250%22%20relative%3D%221%22%20as%3D%22geometry%22%3E%20%20%20%20%20%20%20%20%20%20%20%20%20%3CmxPoint%20x%3D%22200%22%20y%3D%22400%22%20as%3D%22sourcePoint%22%20%2F%3E%20%20%20%20%20%20%20%20%20%20%20%20%20%3CmxPoint%20x%3D%22200%22%20y%3D%22310%22%20as%3D%22targetPoint%22%20%2F%3E%20%20%20%20%20%20%20%20%20%20%20%3C%2FmxGeometry%3E%20%20%20%20%20%20%20%20%20%3C%2FmxCell%3E%20%20%20%20%20%20%20%20%20%3CmxCell%20id%3D%22Zhi-iH-fIv--cLj7lgiU-7%22%20value%3D%22%22%20style%3D%22endArrow%3Dclassic%3Bhtml%3D1%3Brounded%3D0%3BfontSize%3D10.9%3BstrokeWidth%3D2%3BendFill%3D1%3BfontFamily%3DNimbus%20Roman%20No9%20L%3BfontSource%3Dhttps%253A%252F%252Fwww.1001fonts.com%252Fdownload%252Ffont%252Fnimbus-roman-no9-l.regular.otf%3BstrokeColor%3D%231AFF1F%3B%22%20parent%3D%221%22%20edge%3D%221%22%3E%20%20%20%20%20%20%20%20%20%20%20%3CmxGeometry%20width%3D%2250%22%20height%3D%2250%22%20relative%3D%221%22%20as%3D%22geometry%22%3E%20%20%20%20%20%20%20%20%20%20%20%20%20%3CmxPoint%20x%3D%22280%22%20y%3D%22400%22%20as%3D%22sourcePoint%22%20%2F%3E%20%20%20%20%20%20%20%20%20%20%20%20%20%3CmxPoint%20x%3D%22280%22%20y%3D%22360%22%20as%3D%22targetPoint%22%20%2F%3E%20%20%20%20%20%20%20%20%20%20%20%3C%2FmxGeometry%3E%20%20%20%20%20%20%20%20%20%3C%2FmxCell%3E%20%20%20%20%20%20%20%20%20%3CmxCell%20id%3D%22Zhi-iH-fIv--cLj7lgiU-8%22%20value%3D%22%22%20style%3D%22endArrow%3Dclassic%3Bhtml%3D1%3Brounded%3D0%3BfontSize%3D10.9%3BstrokeWidth%3D2%3BendFill%3D1%3BfontFamily%3DNimbus%20Roman%20No9%20L%3BfontSource%3Dhttps%253A%252F%252Fwww.1001fonts.com%252Fdownload%252Ffont%252Fnimbus-roman-no9-l.regular.otf%3BstrokeColor%3D%231AFF1F%3B%22%20parent%3D%221%22%20edge%3D%221%22%3E%20%20%20%20%20%20%20%20%20%20%20%3CmxGeometry%20width%3D%2250%22%20height%3D%2250%22%20relative%3D%221%22%20as%3D%22geometry%22%3E%20%20%20%20%20%20%20%20%20%20%20%20%20%3CmxPoint%20x%3D%22360%22%20y%3D%22400%22%20as%3D%22sourcePoint%22%20%2F%3E%20%20%20%20%20%20%20%20%20%20%20%20%20%3CmxPoint%20x%3D%22360%22%20y%3D%22300%22%20as%3D%22targetPoint%22%20%2F%3E%20%20%20%20%20%20%20%20%20%20%20%3C%2FmxGeometry%3E%20%20%20%20%20%20%20%20%20%3C%2FmxCell%3E%20%20%20%20%20%20%20%20%20%3CmxCell%20id%3D%22Zhi-iH-fIv--cLj7lgiU-9%22%20value%3D%22100%20COP%22%20style%3D%22text%3Bhtml%3D1%3BstrokeColor%3Dnone%3BfillColor%3Dnone%3Balign%3Dcenter%3BverticalAlign%3Dmiddle%3BwhiteSpace%3Dwrap%3Brounded%3D0%3BfontSize%3D10.9%3BstrokeWidth%3D2%3BfontFamily%3DNimbus%20Roman%20No9%20L%3BfontSource%3Dhttps%253A%252F%252Fwww.1001fonts.com%252Fdownload%252Ffont%252Fnimbus-roman-no9-l.regular.otf%3B%22%20parent%3D%221%22%20vertex%3D%221%22%3E%20%20%20%20%20%20%20%20%20%20%20%3CmxGeometry%20x%3D%2210%22%20y%3D%22520%22%20width%3D%2260%22%20height%3D%2230%22%20as%3D%22geometry%22%20%2F%3E%20%20%20%20%20%20%20%20%20%3C%2FmxCell%3E%20%20%20%20%20%20%20%20%20%3CmxCell%20id%3D%22Zhi-iH-fIv--cLj7lgiU-10%22%20value%3D%2230%20COP%22%20style%3D%22text%3Bhtml%3D1%3BstrokeColor%3Dnone%3BfillColor%3Dnone%3Balign%3Dcenter%3BverticalAlign%3Dmiddle%3BwhiteSpace%3Dwrap%3Brounded%3D0%3BfontSize%3D10.9%3BstrokeWidth%3D2%3BfontFamily%3DNimbus%20Roman%20No9%20L%3BfontSource%3Dhttps%253A%252F%252Fwww.1001fonts.com%252Fdownload%252Ffont%252Fnimbus-roman-no9-l.regular.otf%3B%22%20parent%3D%221%22%20vertex%3D%221%22%3E%20%20%20%20%20%20%20%20%20%20%20%3CmxGeometry%20x%3D%2290%22%20y%3D%22330%22%20width%3D%2260%22%20height%3D%2230%22%20as%3D%22geometry%22%20%2F%3E%20%20%20%20%20%20%20%20%20%3C%2FmxCell%3E%20%20%20%20%20%20%20%20%20%3CmxCell%20id%3D%22Zhi-iH-fIv--cLj7lgiU-11%22%20value%3D%2270%20COP%22%20style%3D%22text%3Bhtml%3D1%3BstrokeColor%3Dnone%3BfillColor%3Dnone%3Balign%3Dcenter%3BverticalAlign%3Dmiddle%3BwhiteSpace%3Dwrap%3Brounded%3D0%3BfontSize%3D10.9%3BstrokeWidth%3D2%3BfontFamily%3DNimbus%20Roman%20No9%20L%3BfontSource%3Dhttps%253A%252F%252Fwww.1001fonts.com%252Fdownload%252Ffont%252Fnimbus-roman-no9-l.regular.otf%3B%22%20parent%3D%221%22%20vertex%3D%221%22%3E%20%20%20%20%20%20%20%20%20%20%20%3CmxGeometry%20x%3D%22170%22%20y%3D%22280%22%20width%3D%2260%22%20height%3D%2230%22%20as%3D%22geometry%22%20%2F%3E%20%20%20%20%20%20%20%20%20%3C%2FmxCell%3E%20%20%20%20%20%20%20%20%20%3CmxCell%20id%3D%22Zhi-iH-fIv--cLj7lgiU-12%22%20value%3D%2228%20COP%22%20style%3D%22text%3Bhtml%3D1%3BstrokeColor%3Dnone%3BfillColor%3Dnone%3Balign%3Dcenter%3BverticalAlign%3Dmiddle%3BwhiteSpace%3Dwrap%3Brounded%3D0%3BfontSize%3D10.9%3BstrokeWidth%3D2%3BfontFamily%3DNimbus%20Roman%20No9%20L%3BfontSource%3Dhttps%253A%252F%252Fwww.1001fonts.com%252Fdownload%252Ffont%252Fnimbus-roman-no9-l.regular.otf%3BfontStyle%3D0%22%20parent%3D%221%22%20vertex%3D%221%22%3E%20%20%20%20%20%20%20%20%20%20%20%3CmxGeometry%20x%3D%22250%22%20y%3D%22330%22%20width%3D%2260%22%20height%3D%2230%22%20as%3D%22geometry%22%20%2F%3E%20%20%20%20%20%20%20%20%20%3C%2FmxCell%3E%20%20%20%20%20%20%20%20%20%3CmxCell%20id%3D%22Zhi-iH-fIv--cLj7lgiU-13%22%20value%3D%2275%20COP%22%20style%3D%22text%3Bhtml%3D1%3BstrokeColor%3Dnone%3BfillColor%3Dnone%3Balign%3Dcenter%3BverticalAlign%3Dmiddle%3BwhiteSpace%3Dwrap%3Brounded%3D0%3BfontSize%3D10.9%3BstrokeWidth%3D2%3BfontFamily%3DNimbus%20Roman%20No9%20L%3BfontSource%3Dhttps%253A%252F%252Fwww.1001fonts.com%252Fdownload%252Ffont%252Fnimbus-roman-no9-l.regular.otf%3B%22%20parent%3D%221%22%20vertex%3D%221%22%3E%20%20%20%20%20%20%20%20%20%20%20%3CmxGeometry%20x%3D%22330%22%20y%3D%22270%22%20width%3D%2260%22%20height%3D%2230%22%20as%3D%22geometry%22%20%2F%3E%20%20%20%20%20%20%20%20%20%3C%2FmxCell%3E%20%20%20%20%20%20%20%20%20%3CmxCell%20id%3D%22Zhi-iH-fIv--cLj7lgiU-14%22%20value%3D%221%22%20style%3D%22text%3Bhtml%3D1%3BstrokeColor%3Dnone%3BfillColor%3Dnone%3Balign%3Dcenter%3BverticalAlign%3Dmiddle%3BwhiteSpace%3Dwrap%3Brounded%3D0%3BfontSize%3D10.9%3BstrokeWidth%3D2%3BfontFamily%3DNimbus%20Roman%20No9%20L%3BfontSource%3Dhttps%253A%252F%252Fwww.1001fonts.com%252Fdownload%252Ffont%252Fnimbus-roman-no9-l.regular.otf%3B%22%20parent%3D%221%22%20vertex%3D%221%22%3E%20%20%20%20%20%20%20%20%20%20%20%3CmxGeometry%20x%3D%2290%22%20y%3D%22395%22%20width%3D%2260%22%20height%3D%2230%22%20as%3D%22geometry%22%20%2F%3E%20%20%20%20%20%20%20%20%20%3C%2FmxCell%3E%20%20%20%20%20%20%20%20%20%3CmxCell%20id%3D%22Zhi-iH-fIv--cLj7lgiU-15%22%20value%3D%222%22%20style%3D%22text%3Bhtml%3D1%3BstrokeColor%3Dnone%3BfillColor%3Dnone%3Balign%3Dcenter%3BverticalAlign%3Dmiddle%3BwhiteSpace%3Dwrap%3Brounded%3D0%3BstrokeWidth%3D2%3BfontFamily%3DNimbus%20Roman%20No9%20L%3BfontSource%3Dhttps%253A%252F%252Fwww.1001fonts.com%252Fdownload%252Ffont%252Fnimbus-roman-no9-l.regular.otf%3BfontSize%3D10.9%3B%22%20parent%3D%221%22%20vertex%3D%221%22%3E%20%20%20%20%20%20%20%20%20%20%20%3CmxGeometry%20x%3D%22170%22%20y%3D%22395%22%20width%3D%2260%22%20height%3D%2230%22%20as%3D%22geometry%22%20%2F%3E%20%20%20%20%20%20%20%20%20%3C%2FmxCell%3E%20%20%20%20%20%20%20%20%20%3CmxCell%20id%3D%22Zhi-iH-fIv--cLj7lgiU-16%22%20value%3D%223%22%20style%3D%22text%3Bhtml%3D1%3BstrokeColor%3Dnone%3BfillColor%3Dnone%3Balign%3Dcenter%3BverticalAlign%3Dmiddle%3BwhiteSpace%3Dwrap%3Brounded%3D0%3BstrokeWidth%3D2%3BfontFamily%3DNimbus%20Roman%20No9%20L%3BfontSource%3Dhttps%253A%252F%252Fwww.1001fonts.com%252Fdownload%252Ffont%252Fnimbus-roman-no9-l.regular.otf%3BfontSize%3D10.9%3B%22%20parent%3D%221%22%20vertex%3D%221%22%3E%20%20%20%20%20%20%20%20%20%20%20%3CmxGeometry%20x%3D%22250%22%20y%3D%22395%22%20width%3D%2260%22%20height%3D%2230%22%20as%3D%22geometry%22%20%2F%3E%20%20%20%20%20%20%20%20%20%3C%2FmxCell%3E%20%20%20%20%20%20%20%20%20%3CmxCell%20id%3D%22Zhi-iH-fIv--cLj7lgiU-17%22%20value%3D%224%22%20style%3D%22text%3Bhtml%3D1%3BstrokeColor%3Dnone%3BfillColor%3Dnone%3Balign%3Dcenter%3BverticalAlign%3Dmiddle%3BwhiteSpace%3Dwrap%3Brounded%3D0%3BstrokeWidth%3D2%3BfontFamily%3DNimbus%20Roman%20No9%20L%3BfontSource%3Dhttps%253A%252F%252Fwww.1001fonts.com%252Fdownload%252Ffont%252Fnimbus-roman-no9-l.regular.otf%3BfontSize%3D10.9%3B%22%20parent%3D%221%22%20vertex%3D%221%22%3E%20%20%20%20%20%20%20%20%20%20%20%3CmxGeometry%20x%3D%22330%22%20y%3D%22395%22%20width%3D%2260%22%20height%3D%2230%22%20as%3D%22geometry%22%20%2F%3E%20%20%20%20%20%20%20%20%20%3C%2FmxCell%3E%20%20%20%20%20%20%20%20%20%3CmxCell%20id%3D%22Zhi-iH-fIv--cLj7lgiU-22%22%20value%3D%22%26lt%3Bfont%20style%3D%26quot%3Bfont-size%3A%2010.9px%3B%26quot%3B%26gt%3Bpmv%26lt%3B%2Ffont%26gt%3B%22%20style%3D%22text%3Bhtml%3D1%3BstrokeColor%3Dnone%3BfillColor%3Dnone%3Balign%3Dcenter%3BverticalAlign%3Dmiddle%3BwhiteSpace%3Dwrap%3Brounded%3D0%3BfontFamily%3DNimbus%20Roman%20No9%20L%3BfontSource%3Dhttps%253A%252F%252Fwww.1001fonts.com%252Fdownload%252Ffont%252Fnimbus-roman-no9-l.regular.otf%3BfontSize%3D10.9%3B%22%20parent%3D%221%22%20vertex%3D%221%22%3E%20%20%20%20%20%20%20%20%20%20%20%3CmxGeometry%20x%3D%22350%22%20y%3D%22380%22%20width%3D%2260%22%20height%3D%2230%22%20as%3D%22geometry%22%20%2F%3E%20%20%20%20%20%20%20%20%20%3C%2FmxCell%3E%20%20%20%20%20%20%20%3C%2Froot%3E%20%20%20%20%20%3C%2FmxGraphModel%3E%20%20%20%3C%2Fdiagram%3E%20%3C%2Fmxfile%3E%20">
  <defs
     id="defs50">
    <g
       id="g48">
      <g
         id="glyph-0-0">
        <path
           d="M 1.140625 0 L 1.140625 -5.109375 L 5.21875 -5.109375 L 5.21875 0 Z M 1.265625 -0.125 L 5.09375 -0.125 L 5.09375 -4.984375 L 1.265625 -4.984375 Z M 1.265625 -0.125 "
           id="path2" />
      </g>
      <g
         id="glyph-0-1">
        <path
           d="M 0.296875 -2.671875 C 0.296875 -3.285156 0.390625 -3.816406 0.578125 -4.265625 C 0.765625 -4.710938 1.007813 -5.046875 1.3125 -5.265625 C 1.550781 -5.429688 1.800781 -5.515625 2.0625 -5.515625 C 2.476563 -5.515625 2.847656 -5.304688 3.171875 -4.890625 C 3.585938 -4.367188 3.796875 -3.65625 3.796875 -2.75 C 3.796875 -2.125 3.703125 -1.59375 3.515625 -1.15625 C 3.335938 -0.71875 3.109375 -0.398438 2.828125 -0.203125 C 2.546875 -0.00390625 2.273438 0.09375 2.015625 0.09375 C 1.503906 0.09375 1.078125 -0.207031 0.734375 -0.8125 C 0.441406 -1.332031 0.296875 -1.953125 0.296875 -2.671875 Z M 1.078125 -2.578125 C 1.078125 -1.828125 1.171875 -1.21875 1.359375 -0.75 C 1.503906 -0.351563 1.726563 -0.15625 2.03125 -0.15625 C 2.175781 -0.15625 2.320313 -0.21875 2.46875 -0.34375 C 2.625 -0.476563 2.742188 -0.695313 2.828125 -1 C 2.953125 -1.457031 3.015625 -2.101563 3.015625 -2.9375 C 3.015625 -3.550781 2.953125 -4.066406 2.828125 -4.484375 C 2.722656 -4.785156 2.597656 -5 2.453125 -5.125 C 2.335938 -5.21875 2.207031 -5.265625 2.0625 -5.265625 C 1.875 -5.265625 1.710938 -5.179688 1.578125 -5.015625 C 1.378906 -4.796875 1.242188 -4.445313 1.171875 -3.96875 C 1.109375 -3.5 1.078125 -3.035156 1.078125 -2.578125 Z M 1.078125 -2.578125 "
           id="path5" />
      </g>
      <g
         id="glyph-0-2">
        <path
           d="M 0.953125 -4.875 L 2.28125 -5.515625 L 2.40625 -5.515625 L 2.40625 -0.953125 C 2.40625 -0.648438 2.414063 -0.460938 2.4375 -0.390625 C 2.46875 -0.316406 2.519531 -0.257813 2.59375 -0.21875 C 2.675781 -0.175781 2.84375 -0.148438 3.09375 -0.140625 L 3.09375 0 L 1.046875 0 L 1.046875 -0.140625 C 1.304688 -0.148438 1.472656 -0.171875 1.546875 -0.203125 C 1.617188 -0.242188 1.671875 -0.296875 1.703125 -0.359375 C 1.734375 -0.429688 1.75 -0.628906 1.75 -0.953125 L 1.75 -3.875 C 1.75 -4.269531 1.734375 -4.519531 1.703125 -4.625 C 1.691406 -4.71875 1.660156 -4.78125 1.609375 -4.8125 C 1.554688 -4.851563 1.492188 -4.875 1.421875 -4.875 C 1.328125 -4.875 1.191406 -4.832031 1.015625 -4.75 Z M 0.953125 -4.875 "
           id="path8" />
      </g>
      <g
         id="glyph-0-3" />
      <g
         id="glyph-0-4">
        <path
           d="M 4.921875 -5.53125 L 5.046875 -3.6875 L 4.921875 -3.6875 C 4.753906 -4.238281 4.515625 -4.632813 4.203125 -4.875 C 3.898438 -5.125 3.535156 -5.25 3.109375 -5.25 C 2.753906 -5.25 2.429688 -5.15625 2.140625 -4.96875 C 1.847656 -4.789063 1.617188 -4.5 1.453125 -4.09375 C 1.285156 -3.695313 1.203125 -3.203125 1.203125 -2.609375 C 1.203125 -2.117188 1.28125 -1.691406 1.4375 -1.328125 C 1.59375 -0.972656 1.828125 -0.703125 2.140625 -0.515625 C 2.460938 -0.328125 2.828125 -0.234375 3.234375 -0.234375 C 3.578125 -0.234375 3.882813 -0.304688 4.15625 -0.453125 C 4.425781 -0.597656 4.722656 -0.894531 5.046875 -1.34375 L 5.171875 -1.265625 C 4.898438 -0.785156 4.582031 -0.429688 4.21875 -0.203125 C 3.851563 0.015625 3.421875 0.125 2.921875 0.125 C 2.023438 0.125 1.332031 -0.207031 0.84375 -0.875 C 0.476563 -1.363281 0.296875 -1.945313 0.296875 -2.625 C 0.296875 -3.164063 0.414063 -3.660156 0.65625 -4.109375 C 0.894531 -4.554688 1.226563 -4.90625 1.65625 -5.15625 C 2.082031 -5.40625 2.546875 -5.53125 3.046875 -5.53125 C 3.441406 -5.53125 3.828125 -5.4375 4.203125 -5.25 C 4.316406 -5.1875 4.394531 -5.15625 4.4375 -5.15625 C 4.507813 -5.15625 4.570313 -5.179688 4.625 -5.234375 C 4.695313 -5.304688 4.75 -5.40625 4.78125 -5.53125 Z M 4.921875 -5.53125 "
           id="path12" />
      </g>
      <g
         id="glyph-0-5">
        <path
           d="M 2.984375 -5.53125 C 3.691406 -5.53125 4.300781 -5.265625 4.8125 -4.734375 C 5.332031 -4.203125 5.59375 -3.535156 5.59375 -2.734375 C 5.59375 -1.910156 5.332031 -1.226563 4.8125 -0.6875 C 4.289063 -0.144531 3.660156 0.125 2.921875 0.125 C 2.179688 0.125 1.554688 -0.140625 1.046875 -0.671875 C 0.535156 -1.203125 0.28125 -1.882813 0.28125 -2.71875 C 0.28125 -3.582031 0.578125 -4.285156 1.171875 -4.828125 C 1.671875 -5.296875 2.273438 -5.53125 2.984375 -5.53125 Z M 2.90625 -5.25 C 2.425781 -5.25 2.039063 -5.066406 1.75 -4.703125 C 1.382813 -4.253906 1.203125 -3.597656 1.203125 -2.734375 C 1.203125 -1.859375 1.390625 -1.179688 1.765625 -0.703125 C 2.054688 -0.335938 2.441406 -0.15625 2.921875 -0.15625 C 3.421875 -0.15625 3.835938 -0.351563 4.171875 -0.75 C 4.503906 -1.144531 4.671875 -1.769531 4.671875 -2.625 C 4.671875 -3.550781 4.488281 -4.242188 4.125 -4.703125 C 3.832031 -5.066406 3.425781 -5.25 2.90625 -5.25 Z M 2.90625 -5.25 "
           id="path15" />
      </g>
      <g
         id="glyph-0-6">
        <path
           d="M 1.671875 -2.53125 L 1.671875 -0.953125 C 1.671875 -0.617188 1.707031 -0.410156 1.78125 -0.328125 C 1.882813 -0.203125 2.039063 -0.140625 2.25 -0.140625 L 2.453125 -0.140625 L 2.453125 0 L 0.140625 0 L 0.140625 -0.140625 L 0.34375 -0.140625 C 0.570313 -0.140625 0.734375 -0.21875 0.828125 -0.375 C 0.878906 -0.457031 0.90625 -0.648438 0.90625 -0.953125 L 0.90625 -4.453125 C 0.90625 -4.796875 0.867188 -5.007813 0.796875 -5.09375 C 0.691406 -5.207031 0.539063 -5.265625 0.34375 -5.265625 L 0.140625 -5.265625 L 0.140625 -5.40625 L 2.125 -5.40625 C 2.601563 -5.40625 2.984375 -5.351563 3.265625 -5.25 C 3.546875 -5.15625 3.78125 -4.988281 3.96875 -4.75 C 4.15625 -4.519531 4.25 -4.242188 4.25 -3.921875 C 4.25 -3.472656 4.101563 -3.109375 3.8125 -2.828125 C 3.53125 -2.554688 3.117188 -2.421875 2.578125 -2.421875 C 2.453125 -2.421875 2.3125 -2.429688 2.15625 -2.453125 C 2.007813 -2.472656 1.847656 -2.5 1.671875 -2.53125 Z M 1.671875 -2.765625 C 1.816406 -2.734375 1.941406 -2.710938 2.046875 -2.703125 C 2.160156 -2.691406 2.253906 -2.6875 2.328125 -2.6875 C 2.609375 -2.6875 2.847656 -2.789063 3.046875 -3 C 3.242188 -3.21875 3.34375 -3.492188 3.34375 -3.828125 C 3.34375 -4.066406 3.296875 -4.285156 3.203125 -4.484375 C 3.109375 -4.679688 2.972656 -4.832031 2.796875 -4.9375 C 2.617188 -5.039063 2.421875 -5.09375 2.203125 -5.09375 C 2.066406 -5.09375 1.890625 -5.066406 1.671875 -5.015625 Z M 1.671875 -2.765625 "
           id="path18" />
      </g>
      <g
         id="glyph-0-7">
        <path
           d="M 0.421875 -4.375 C 0.566406 -4.738281 0.757813 -5.019531 1 -5.21875 C 1.238281 -5.414063 1.53125 -5.515625 1.875 -5.515625 C 2.3125 -5.515625 2.644531 -5.375 2.875 -5.09375 C 3.050781 -4.882813 3.140625 -4.660156 3.140625 -4.421875 C 3.140625 -4.023438 2.890625 -3.617188 2.390625 -3.203125 C 2.722656 -3.078125 2.972656 -2.890625 3.140625 -2.640625 C 3.316406 -2.398438 3.40625 -2.117188 3.40625 -1.796875 C 3.40625 -1.328125 3.253906 -0.921875 2.953125 -0.578125 C 2.566406 -0.128906 2.003906 0.09375 1.265625 0.09375 C 0.898438 0.09375 0.648438 0.0507813 0.515625 -0.03125 C 0.390625 -0.125 0.328125 -0.222656 0.328125 -0.328125 C 0.328125 -0.410156 0.359375 -0.476563 0.421875 -0.53125 C 0.484375 -0.59375 0.5625 -0.625 0.65625 -0.625 C 0.71875 -0.625 0.785156 -0.613281 0.859375 -0.59375 C 0.898438 -0.582031 1 -0.53125 1.15625 -0.4375 C 1.320313 -0.351563 1.4375 -0.304688 1.5 -0.296875 C 1.59375 -0.265625 1.695313 -0.25 1.8125 -0.25 C 2.082031 -0.25 2.316406 -0.351563 2.515625 -0.5625 C 2.710938 -0.769531 2.8125 -1.019531 2.8125 -1.3125 C 2.8125 -1.519531 2.765625 -1.722656 2.671875 -1.921875 C 2.609375 -2.078125 2.535156 -2.191406 2.453125 -2.265625 C 2.335938 -2.367188 2.179688 -2.460938 1.984375 -2.546875 C 1.785156 -2.640625 1.582031 -2.6875 1.375 -2.6875 L 1.234375 -2.6875 L 1.234375 -2.8125 C 1.453125 -2.832031 1.664063 -2.90625 1.875 -3.03125 C 2.082031 -3.15625 2.234375 -3.304688 2.328125 -3.484375 C 2.429688 -3.660156 2.484375 -3.851563 2.484375 -4.0625 C 2.484375 -4.332031 2.394531 -4.550781 2.21875 -4.71875 C 2.050781 -4.894531 1.835938 -4.984375 1.578125 -4.984375 C 1.171875 -4.984375 0.828125 -4.757813 0.546875 -4.3125 Z M 0.421875 -4.375 "
           id="path21" />
      </g>
      <g
         id="glyph-0-8">
        <path
           d="M 0.828125 -5.40625 L 3.71875 -5.40625 L 3.71875 -5.265625 L 1.921875 0.109375 L 1.46875 0.109375 L 3.09375 -4.765625 L 1.59375 -4.765625 C 1.300781 -4.765625 1.085938 -4.726563 0.953125 -4.65625 C 0.734375 -4.53125 0.554688 -4.34375 0.421875 -4.09375 L 0.296875 -4.125 Z M 0.828125 -5.40625 "
           id="path24" />
      </g>
      <g
         id="glyph-0-9">
        <path
           d="M 3.75 -1.046875 L 3.375 0 L 0.171875 0 L 0.171875 -0.140625 C 1.109375 -1.003906 1.769531 -1.707031 2.15625 -2.25 C 2.539063 -2.789063 2.734375 -3.285156 2.734375 -3.734375 C 2.734375 -4.078125 2.628906 -4.359375 2.421875 -4.578125 C 2.210938 -4.796875 1.957031 -4.90625 1.65625 -4.90625 C 1.394531 -4.90625 1.15625 -4.828125 0.9375 -4.671875 C 0.726563 -4.515625 0.578125 -4.289063 0.484375 -4 L 0.328125 -4 C 0.398438 -4.488281 0.570313 -4.863281 0.84375 -5.125 C 1.113281 -5.382813 1.457031 -5.515625 1.875 -5.515625 C 2.3125 -5.515625 2.675781 -5.375 2.96875 -5.09375 C 3.269531 -4.8125 3.421875 -4.484375 3.421875 -4.109375 C 3.421875 -3.828125 3.351563 -3.550781 3.21875 -3.28125 C 3.019531 -2.851563 2.703125 -2.394531 2.265625 -1.90625 C 1.597656 -1.1875 1.1875 -0.753906 1.03125 -0.609375 L 2.4375 -0.609375 C 2.726563 -0.609375 2.929688 -0.617188 3.046875 -0.640625 C 3.160156 -0.660156 3.265625 -0.703125 3.359375 -0.765625 C 3.453125 -0.828125 3.53125 -0.921875 3.59375 -1.046875 Z M 3.75 -1.046875 "
           id="path27" />
      </g>
      <g
         id="glyph-0-10">
        <path
           d="M 1.5625 -2.71875 C 1.132813 -3.070313 0.859375 -3.351563 0.734375 -3.5625 C 0.609375 -3.78125 0.546875 -4.003906 0.546875 -4.234375 C 0.546875 -4.585938 0.679688 -4.890625 0.953125 -5.140625 C 1.234375 -5.390625 1.597656 -5.515625 2.046875 -5.515625 C 2.484375 -5.515625 2.832031 -5.394531 3.09375 -5.15625 C 3.363281 -4.925781 3.5 -4.660156 3.5 -4.359375 C 3.5 -4.148438 3.425781 -3.941406 3.28125 -3.734375 C 3.132813 -3.523438 2.832031 -3.28125 2.375 -3 C 2.84375 -2.632813 3.15625 -2.347656 3.3125 -2.140625 C 3.507813 -1.867188 3.609375 -1.582031 3.609375 -1.28125 C 3.609375 -0.90625 3.460938 -0.582031 3.171875 -0.3125 C 2.890625 -0.0390625 2.507813 0.09375 2.03125 0.09375 C 1.519531 0.09375 1.125 -0.0664063 0.84375 -0.390625 C 0.613281 -0.648438 0.5 -0.929688 0.5 -1.234375 C 0.5 -1.472656 0.578125 -1.707031 0.734375 -1.9375 C 0.898438 -2.175781 1.175781 -2.4375 1.5625 -2.71875 Z M 2.1875 -3.15625 C 2.507813 -3.4375 2.710938 -3.660156 2.796875 -3.828125 C 2.878906 -3.992188 2.921875 -4.179688 2.921875 -4.390625 C 2.921875 -4.671875 2.84375 -4.890625 2.6875 -5.046875 C 2.53125 -5.210938 2.316406 -5.296875 2.046875 -5.296875 C 1.773438 -5.296875 1.554688 -5.210938 1.390625 -5.046875 C 1.222656 -4.890625 1.140625 -4.707031 1.140625 -4.5 C 1.140625 -4.363281 1.171875 -4.222656 1.234375 -4.078125 C 1.304688 -3.941406 1.410156 -3.8125 1.546875 -3.6875 Z M 1.75 -2.578125 C 1.53125 -2.390625 1.367188 -2.1875 1.265625 -1.96875 C 1.160156 -1.75 1.109375 -1.507813 1.109375 -1.25 C 1.109375 -0.90625 1.203125 -0.628906 1.390625 -0.421875 C 1.578125 -0.222656 1.816406 -0.125 2.109375 -0.125 C 2.390625 -0.125 2.613281 -0.203125 2.78125 -0.359375 C 2.957031 -0.523438 3.046875 -0.722656 3.046875 -0.953125 C 3.046875 -1.140625 3 -1.3125 2.90625 -1.46875 C 2.71875 -1.75 2.332031 -2.117188 1.75 -2.578125 Z M 1.75 -2.578125 "
           id="path30" />
      </g>
      <g
         id="glyph-0-11">
        <path
           d="M 3.546875 -5.40625 L 3.234375 -4.734375 L 1.609375 -4.734375 L 1.25 -4 C 1.957031 -3.894531 2.515625 -3.632813 2.921875 -3.21875 C 3.273438 -2.851563 3.453125 -2.425781 3.453125 -1.9375 C 3.453125 -1.65625 3.394531 -1.394531 3.28125 -1.15625 C 3.164063 -0.914063 3.019531 -0.707031 2.84375 -0.53125 C 2.664063 -0.363281 2.472656 -0.226563 2.265625 -0.125 C 1.953125 0.0195313 1.640625 0.09375 1.328125 0.09375 C 0.992188 0.09375 0.753906 0.0390625 0.609375 -0.0625 C 0.460938 -0.175781 0.390625 -0.300781 0.390625 -0.4375 C 0.390625 -0.507813 0.421875 -0.570313 0.484375 -0.625 C 0.546875 -0.6875 0.625 -0.71875 0.71875 -0.71875 C 0.78125 -0.71875 0.835938 -0.707031 0.890625 -0.6875 C 0.941406 -0.664063 1.03125 -0.609375 1.15625 -0.515625 C 1.351563 -0.378906 1.554688 -0.3125 1.765625 -0.3125 C 2.078125 -0.3125 2.347656 -0.425781 2.578125 -0.65625 C 2.816406 -0.894531 2.9375 -1.1875 2.9375 -1.53125 C 2.9375 -1.851563 2.832031 -2.15625 2.625 -2.4375 C 2.414063 -2.726563 2.125 -2.945313 1.75 -3.09375 C 1.46875 -3.21875 1.078125 -3.289063 0.578125 -3.3125 L 1.609375 -5.40625 Z M 3.546875 -5.40625 "
           id="path33" />
      </g>
      <g
         id="glyph-0-12">
        <path
           d="M 3.796875 -2 L 3.796875 -1.421875 L 3.078125 -1.421875 L 3.078125 0 L 2.421875 0 L 2.421875 -1.421875 L 0.125 -1.421875 L 0.125 -1.9375 L 2.640625 -5.515625 L 3.078125 -5.515625 L 3.078125 -2 Z M 2.421875 -2 L 2.421875 -4.6875 L 0.515625 -2 Z M 2.421875 -2 "
           id="path36" />
      </g>
      <g
         id="glyph-0-13">
        <path
           d="M -0.015625 -3.296875 L 1.125 -3.75 L 1.265625 -3.75 L 1.265625 -2.890625 C 1.453125 -3.210938 1.640625 -3.4375 1.828125 -3.5625 C 2.023438 -3.695313 2.226563 -3.765625 2.4375 -3.765625 C 2.800781 -3.765625 3.109375 -3.617188 3.359375 -3.328125 C 3.660156 -2.984375 3.8125 -2.523438 3.8125 -1.953125 C 3.8125 -1.328125 3.628906 -0.804688 3.265625 -0.390625 C 2.960938 -0.0546875 2.585938 0.109375 2.140625 0.109375 C 1.941406 0.109375 1.769531 0.0820313 1.625 0.03125 C 1.519531 -0.0078125 1.398438 -0.09375 1.265625 -0.21875 L 1.265625 0.90625 C 1.265625 1.15625 1.28125 1.3125 1.3125 1.375 C 1.34375 1.445313 1.394531 1.5 1.46875 1.53125 C 1.550781 1.570313 1.691406 1.59375 1.890625 1.59375 L 1.890625 1.75 L -0.03125 1.75 L -0.03125 1.59375 L 0.078125 1.59375 C 0.222656 1.601563 0.347656 1.578125 0.453125 1.515625 C 0.492188 1.484375 0.53125 1.4375 0.5625 1.375 C 0.59375 1.3125 0.609375 1.144531 0.609375 0.875 L 0.609375 -2.578125 C 0.609375 -2.816406 0.597656 -2.96875 0.578125 -3.03125 C 0.554688 -3.09375 0.519531 -3.140625 0.46875 -3.171875 C 0.425781 -3.203125 0.363281 -3.21875 0.28125 -3.21875 C 0.21875 -3.21875 0.140625 -3.203125 0.046875 -3.171875 Z M 1.265625 -2.65625 L 1.265625 -1.296875 C 1.265625 -0.992188 1.28125 -0.796875 1.3125 -0.703125 C 1.34375 -0.554688 1.429688 -0.421875 1.578125 -0.296875 C 1.722656 -0.179688 1.90625 -0.125 2.125 -0.125 C 2.394531 -0.125 2.609375 -0.226563 2.765625 -0.4375 C 2.984375 -0.707031 3.09375 -1.085938 3.09375 -1.578125 C 3.09375 -2.140625 2.972656 -2.570313 2.734375 -2.875 C 2.554688 -3.082031 2.351563 -3.1875 2.125 -3.1875 C 2 -3.1875 1.875 -3.15625 1.75 -3.09375 C 1.644531 -3.039063 1.484375 -2.894531 1.265625 -2.65625 Z M 1.265625 -2.65625 "
           id="path39" />
      </g>
      <g
         id="glyph-0-14">
        <path
           d="M 1.34375 -2.984375 C 1.601563 -3.253906 1.757813 -3.40625 1.8125 -3.4375 C 1.925781 -3.539063 2.050781 -3.617188 2.1875 -3.671875 C 2.332031 -3.734375 2.472656 -3.765625 2.609375 -3.765625 C 2.835938 -3.765625 3.035156 -3.695313 3.203125 -3.5625 C 3.367188 -3.425781 3.476563 -3.234375 3.53125 -2.984375 C 3.800781 -3.304688 4.03125 -3.515625 4.21875 -3.609375 C 4.414063 -3.710938 4.613281 -3.765625 4.8125 -3.765625 C 5 -3.765625 5.164063 -3.710938 5.3125 -3.609375 C 5.46875 -3.515625 5.59375 -3.351563 5.6875 -3.125 C 5.738281 -2.96875 5.765625 -2.722656 5.765625 -2.390625 L 5.765625 -0.828125 C 5.765625 -0.597656 5.785156 -0.441406 5.828125 -0.359375 C 5.847656 -0.296875 5.894531 -0.242188 5.96875 -0.203125 C 6.039063 -0.160156 6.160156 -0.140625 6.328125 -0.140625 L 6.328125 0 L 4.515625 0 L 4.515625 -0.140625 L 4.59375 -0.140625 C 4.75 -0.140625 4.867188 -0.171875 4.953125 -0.234375 C 5.015625 -0.273438 5.0625 -0.34375 5.09375 -0.4375 C 5.101563 -0.476563 5.109375 -0.609375 5.109375 -0.828125 L 5.109375 -2.390625 C 5.109375 -2.691406 5.070313 -2.90625 5 -3.03125 C 4.894531 -3.195313 4.726563 -3.28125 4.5 -3.28125 C 4.363281 -3.28125 4.222656 -3.242188 4.078125 -3.171875 C 3.929688 -3.109375 3.757813 -2.976563 3.5625 -2.78125 L 3.546875 -2.734375 L 3.5625 -2.5625 L 3.5625 -0.828125 C 3.5625 -0.578125 3.570313 -0.421875 3.59375 -0.359375 C 3.625 -0.296875 3.675781 -0.242188 3.75 -0.203125 C 3.832031 -0.160156 3.96875 -0.140625 4.15625 -0.140625 L 4.15625 0 L 2.3125 0 L 2.3125 -0.140625 C 2.507813 -0.140625 2.644531 -0.160156 2.71875 -0.203125 C 2.800781 -0.253906 2.851563 -0.332031 2.875 -0.4375 C 2.894531 -0.476563 2.90625 -0.609375 2.90625 -0.828125 L 2.90625 -2.390625 C 2.90625 -2.691406 2.859375 -2.910156 2.765625 -3.046875 C 2.648438 -3.210938 2.488281 -3.296875 2.28125 -3.296875 C 2.132813 -3.296875 1.988281 -3.257813 1.84375 -3.1875 C 1.625 -3.0625 1.457031 -2.925781 1.34375 -2.78125 L 1.34375 -0.828125 C 1.34375 -0.585938 1.359375 -0.429688 1.390625 -0.359375 C 1.421875 -0.285156 1.46875 -0.226563 1.53125 -0.1875 C 1.601563 -0.15625 1.738281 -0.140625 1.9375 -0.140625 L 1.9375 0 L 0.125 0 L 0.125 -0.140625 C 0.289063 -0.140625 0.40625 -0.15625 0.46875 -0.1875 C 0.539063 -0.226563 0.59375 -0.285156 0.625 -0.359375 C 0.664063 -0.441406 0.6875 -0.597656 0.6875 -0.828125 L 0.6875 -2.21875 C 0.6875 -2.625 0.671875 -2.882813 0.640625 -3 C 0.628906 -3.082031 0.601563 -3.140625 0.5625 -3.171875 C 0.519531 -3.210938 0.460938 -3.234375 0.390625 -3.234375 C 0.316406 -3.234375 0.226563 -3.210938 0.125 -3.171875 L 0.0625 -3.3125 L 1.171875 -3.765625 L 1.34375 -3.765625 Z M 1.34375 -2.984375 "
           id="path42" />
      </g>
      <g
         id="glyph-0-15">
        <path
           d="M 0.0625 -3.65625 L 1.78125 -3.65625 L 1.78125 -3.5 L 1.671875 -3.5 C 1.566406 -3.5 1.488281 -3.472656 1.4375 -3.421875 C 1.382813 -3.378906 1.359375 -3.316406 1.359375 -3.234375 C 1.359375 -3.140625 1.382813 -3.023438 1.4375 -2.890625 L 2.296875 -0.875 L 3.140625 -2.96875 C 3.203125 -3.125 3.234375 -3.238281 3.234375 -3.3125 C 3.234375 -3.351563 3.222656 -3.382813 3.203125 -3.40625 C 3.171875 -3.445313 3.132813 -3.472656 3.09375 -3.484375 C 3.050781 -3.492188 2.957031 -3.5 2.8125 -3.5 L 2.8125 -3.65625 L 4.015625 -3.65625 L 4.015625 -3.5 C 3.867188 -3.488281 3.769531 -3.460938 3.71875 -3.421875 C 3.625 -3.335938 3.539063 -3.207031 3.46875 -3.03125 L 2.171875 0.109375 L 2.015625 0.109375 L 0.703125 -2.96875 C 0.648438 -3.113281 0.59375 -3.21875 0.53125 -3.28125 C 0.476563 -3.34375 0.410156 -3.394531 0.328125 -3.4375 C 0.285156 -3.457031 0.195313 -3.476563 0.0625 -3.5 Z M 0.0625 -3.65625 "
           id="path45" />
      </g>
    </g>
  </defs>
  <path
     fill="none"
     stroke-width="2"
     stroke-linecap="butt"
     stroke-linejoin="miter"
     stroke="rgb(0%, 0%, 0%)"
     stroke-opacity="1"
     stroke-miterlimit="10"
     d="M 40.001196 130.001279 L 360.000335 130.001279 "
     transform="matrix(0.749392, 0, 0, 0.749392, 0, 0)"
     id="path52" />
  <path
     fill="none"
     stroke-width="2"
     stroke-linecap="butt"
     stroke-linejoin="miter"
     stroke="rgb(100%, 9.408569%, 9.408569%)"
     stroke-opacity="1"
     stroke-miterlimit="10"
     d="M 39.50079 130.001279 L 39.50079 241.758594 "
     transform="matrix(0.749392, 0, 0, 0.749392, 0, 0)"
     id="path54" />
  <path
     fill-rule="nonzero"
     fill="rgb(100%, 9.408569%, 9.408569%)"
     fill-opacity="1"
     stroke-width="2"
     stroke-linecap="butt"
     stroke-linejoin="miter"
     stroke="rgb(100%, 9.408569%, 9.408569%)"
     stroke-opacity="1"
     stroke-miterlimit="10"
     d="M 39.50079 247.758252 L 35.497543 239.762183 L 39.50079 241.758594 L 43.498824 239.762183 Z M 39.50079 247.758252 "
     transform="matrix(0.749392, 0, 0, 0.749392, 0, 0)"
     id="path56" />
  <g
     fill="#000000"
     fill-opacity="1"
     id="g60">
    <use
       xlink:href="#glyph-0-1"
       x="20.432632"
       y="107.9124"
       id="use58" />
  </g>
  <path
     fill="none"
     stroke-width="2"
     stroke-linecap="butt"
     stroke-linejoin="miter"
     stroke="rgb(10.198975%, 100%, 12.159729%)"
     stroke-opacity="1"
     stroke-miterlimit="10"
     d="M 119.998374 130.001279 L 119.998374 98.241143 "
     transform="matrix(0.749392, 0, 0, 0.749392, 0, 0)"
     id="path62" />
  <path
     fill-rule="nonzero"
     fill="rgb(10.198975%, 100%, 12.159729%)"
     fill-opacity="1"
     stroke-width="2"
     stroke-linecap="butt"
     stroke-linejoin="miter"
     stroke="rgb(10.198975%, 100%, 12.159729%)"
     stroke-opacity="1"
     stroke-miterlimit="10"
     d="M 119.998374 92.241485 L 124.001621 100.237554 L 119.998374 98.241143 L 116.000339 100.237554 Z M 119.998374 92.241485 "
     transform="matrix(0.749392, 0, 0, 0.749392, 0, 0)"
     id="path64" />
  <path
     fill="none"
     stroke-width="2"
     stroke-linecap="butt"
     stroke-linejoin="miter"
     stroke="rgb(10.198975%, 100%, 12.159729%)"
     stroke-opacity="1"
     stroke-miterlimit="10"
     d="M 200.000765 130.001279 L 200.000765 48.242255 "
     transform="matrix(0.749392, 0, 0, 0.749392, 0, 0)"
     id="path66" />
  <path
     fill-rule="nonzero"
     fill="rgb(10.198975%, 100%, 12.159729%)"
     fill-opacity="1"
     stroke-width="2"
     stroke-linecap="butt"
     stroke-linejoin="miter"
     stroke="rgb(10.198975%, 100%, 12.159729%)"
     stroke-opacity="1"
     stroke-miterlimit="10"
     d="M 200.000765 42.242597 L 203.9988 50.238666 L 200.000765 48.242255 L 195.997518 50.238666 Z M 200.000765 42.242597 "
     transform="matrix(0.749392, 0, 0, 0.749392, 0, 0)"
     id="path68" />
  <path
     fill="none"
     stroke-width="2"
     stroke-linecap="butt"
     stroke-linejoin="miter"
     stroke="rgb(10.198975%, 100%, 12.159729%)"
     stroke-opacity="1"
     stroke-miterlimit="10"
     d="M 279.997943 130.001279 L 279.997943 98.241143 "
     transform="matrix(0.749392, 0, 0, 0.749392, 0, 0)"
     id="path70" />
  <path
     fill-rule="nonzero"
     fill="rgb(10.198975%, 100%, 12.159729%)"
     fill-opacity="1"
     stroke-width="2"
     stroke-linecap="butt"
     stroke-linejoin="miter"
     stroke="rgb(10.198975%, 100%, 12.159729%)"
     stroke-opacity="1"
     stroke-miterlimit="10"
     d="M 279.997943 92.241485 L 284.001191 100.237554 L 279.997943 98.241143 L 275.999909 100.237554 Z M 279.997943 92.241485 "
     transform="matrix(0.749392, 0, 0, 0.749392, 0, 0)"
     id="path72" />
  <path
     fill="none"
     stroke-width="2"
     stroke-linecap="butt"
     stroke-linejoin="miter"
     stroke="rgb(10.198975%, 100%, 12.159729%)"
     stroke-opacity="1"
     stroke-miterlimit="10"
     d="M 360.000335 130.001279 L 360.000335 38.23935 "
     transform="matrix(0.749392, 0, 0, 0.749392, 0, 0)"
     id="path74" />
  <path
     fill-rule="nonzero"
     fill="rgb(10.198975%, 100%, 12.159729%)"
     fill-opacity="1"
     stroke-width="2"
     stroke-linecap="butt"
     stroke-linejoin="miter"
     stroke="rgb(10.198975%, 100%, 12.159729%)"
     stroke-opacity="1"
     stroke-miterlimit="10"
     d="M 360.000335 32.239692 L 363.998369 40.240973 L 360.000335 38.23935 L 356.0023 40.240973 Z M 360.000335 32.239692 "
     transform="matrix(0.749392, 0, 0, 0.749392, 0, 0)"
     id="path76" />
  <g
     fill="#000000"
     fill-opacity="1"
     id="g80">
    <use
       xlink:href="#glyph-0-2"
       x="14.88245"
       y="201.58636"
       id="use78" />
  </g>
  <g
     fill="#000000"
     fill-opacity="1"
     id="g84">
    <use
       xlink:href="#glyph-0-1"
       x="18.966633"
       y="201.58636"
       id="use82" />
  </g>
  <g
     fill="#000000"
     fill-opacity="1"
     id="g88">
    <use
       xlink:href="#glyph-0-1"
       x="23.050816"
       y="201.58636"
       id="use86" />
  </g>
  <g
     fill="#000000"
     fill-opacity="1"
     id="g92">
    <use
       xlink:href="#glyph-0-3"
       x="27.134996"
       y="201.58636"
       id="use90" />
  </g>
  <g
     fill="#000000"
     fill-opacity="1"
     id="g96">
    <use
       xlink:href="#glyph-0-4"
       x="29.177082"
       y="201.58636"
       id="use94" />
  </g>
  <g
     fill="#000000"
     fill-opacity="1"
     id="g100">
    <use
       xlink:href="#glyph-0-5"
       x="34.625313"
       y="201.58636"
       id="use98" />
  </g>
  <g
     fill="#000000"
     fill-opacity="1"
     id="g104">
    <use
       xlink:href="#glyph-0-6"
       x="40.524242"
       y="201.58636"
       id="use102" />
  </g>
  <g
     fill="#000000"
     fill-opacity="1"
     id="g108">
    <use
       xlink:href="#glyph-0-7"
       x="76.871193"
       y="59.201942"
       id="use106" />
  </g>
  <g
     fill="#000000"
     fill-opacity="1"
     id="g112">
    <use
       xlink:href="#glyph-0-1"
       x="80.955376"
       y="59.201942"
       id="use110" />
  </g>
  <g
     fill="#000000"
     fill-opacity="1"
     id="g116">
    <use
       xlink:href="#glyph-0-3"
       x="85.039558"
       y="59.201942"
       id="use114" />
  </g>
  <g
     fill="#000000"
     fill-opacity="1"
     id="g120">
    <use
       xlink:href="#glyph-0-4"
       x="87.081642"
       y="59.201942"
       id="use118" />
  </g>
  <g
     fill="#000000"
     fill-opacity="1"
     id="g124">
    <use
       xlink:href="#glyph-0-5"
       x="92.529869"
       y="59.201942"
       id="use122" />
  </g>
  <g
     fill="#000000"
     fill-opacity="1"
     id="g128">
    <use
       xlink:href="#glyph-0-6"
       x="98.428802"
       y="59.201942"
       id="use126" />
  </g>
  <g
     fill="#000000"
     fill-opacity="1"
     id="g132">
    <use
       xlink:href="#glyph-0-8"
       x="136.82253"
       y="21.732359"
       id="use130" />
  </g>
  <g
     fill="#000000"
     fill-opacity="1"
     id="g136">
    <use
       xlink:href="#glyph-0-1"
       x="140.90671"
       y="21.732359"
       id="use134" />
  </g>
  <g
     fill="#000000"
     fill-opacity="1"
     id="g140">
    <use
       xlink:href="#glyph-0-3"
       x="144.99089"
       y="21.732359"
       id="use138" />
  </g>
  <g
     fill="#000000"
     fill-opacity="1"
     id="g144">
    <use
       xlink:href="#glyph-0-4"
       x="147.03297"
       y="21.732359"
       id="use142" />
  </g>
  <g
     fill="#000000"
     fill-opacity="1"
     id="g148">
    <use
       xlink:href="#glyph-0-5"
       x="152.4812"
       y="21.732359"
       id="use146" />
  </g>
  <g
     fill="#000000"
     fill-opacity="1"
     id="g152">
    <use
       xlink:href="#glyph-0-6"
       x="158.38014"
       y="21.732359"
       id="use150" />
  </g>
  <g
     fill="#000000"
     fill-opacity="1"
     id="g156">
    <use
       xlink:href="#glyph-0-9"
       x="196.77386"
       y="59.201942"
       id="use154" />
  </g>
  <g
     fill="#000000"
     fill-opacity="1"
     id="g160">
    <use
       xlink:href="#glyph-0-10"
       x="200.85805"
       y="59.201942"
       id="use158" />
  </g>
  <g
     fill="#000000"
     fill-opacity="1"
     id="g164">
    <use
       xlink:href="#glyph-0-3"
       x="204.94223"
       y="59.201942"
       id="use162" />
  </g>
  <g
     fill="#000000"
     fill-opacity="1"
     id="g168">
    <use
       xlink:href="#glyph-0-4"
       x="206.98431"
       y="59.201942"
       id="use166" />
  </g>
  <g
     fill="#000000"
     fill-opacity="1"
     id="g172">
    <use
       xlink:href="#glyph-0-5"
       x="212.43254"
       y="59.201942"
       id="use170" />
  </g>
  <g
     fill="#000000"
     fill-opacity="1"
     id="g176">
    <use
       xlink:href="#glyph-0-6"
       x="218.33147"
       y="59.201942"
       id="use174" />
  </g>
  <g
     fill="#000000"
     fill-opacity="1"
     id="g180">
    <use
       xlink:href="#glyph-0-8"
       x="256.72519"
       y="14.238442"
       id="use178" />
  </g>
  <g
     fill="#000000"
     fill-opacity="1"
     id="g184">
    <use
       xlink:href="#glyph-0-11"
       x="260.80939"
       y="14.238442"
       id="use182" />
  </g>
  <g
     fill="#000000"
     fill-opacity="1"
     id="g188">
    <use
       xlink:href="#glyph-0-3"
       x="264.89355"
       y="14.238442"
       id="use186" />
  </g>
  <g
     fill="#000000"
     fill-opacity="1"
     id="g192">
    <use
       xlink:href="#glyph-0-4"
       x="266.93564"
       y="14.238442"
       id="use190" />
  </g>
  <g
     fill="#000000"
     fill-opacity="1"
     id="g196">
    <use
       xlink:href="#glyph-0-5"
       x="272.38388"
       y="14.238442"
       id="use194" />
  </g>
  <g
     fill="#000000"
     fill-opacity="1"
     id="g200">
    <use
       xlink:href="#glyph-0-6"
       x="278.28281"
       y="14.238442"
       id="use198" />
  </g>
  <g
     fill="#000000"
     fill-opacity="1"
     id="g204">
    <use
       xlink:href="#glyph-0-2"
       x="87.877884"
       y="107.9124"
       id="use202" />
  </g>
  <g
     fill="#000000"
     fill-opacity="1"
     id="g208">
    <use
       xlink:href="#glyph-0-9"
       x="147.82922"
       y="107.9124"
       id="use206" />
  </g>
  <g
     fill="#000000"
     fill-opacity="1"
     id="g212">
    <use
       xlink:href="#glyph-0-7"
       x="207.78055"
       y="107.9124"
       id="use210" />
  </g>
  <g
     fill="#000000"
     fill-opacity="1"
     id="g216">
    <use
       xlink:href="#glyph-0-12"
       x="267.73187"
       y="107.9124"
       id="use214" />
  </g>
  <g
     fill="#000000"
     fill-opacity="1"
     id="g220">
    <use
       xlink:href="#glyph-0-13"
       x="277.49741"
       y="96.671524"
       id="use218" />
  </g>
  <g
     fill="#000000"
     fill-opacity="1"
     id="g224">
    <use
       xlink:href="#glyph-0-14"
       x="281.58157"
       y="96.671524"
       id="use222" />
  </g>
  <g
     fill="#000000"
     fill-opacity="1"
     id="g228">
    <use
       xlink:href="#glyph-0-15"
       x="287.93518"
       y="96.671524"
       id="use226" />
  </g>
</svg>
