<?xml version="1.0" encoding="UTF-8" standalone="no"?>
<svg 
   width="413.03998pt"
   height="214.08pt"
   viewBox="0 0 413.03998 214.08"
   version="1.1"
   id="svg310"
   xmlns:xlink="http://www.w3.org/1999/xlink"
   xmlns="http://www.w3.org/2000/svg"
   xmlns:svg="http://www.w3.org/2000/svg" content="%3Cmxfile%20host%3D%22app.diagrams.net%22%20modified%3D%222023-11-12T19%3A19%3A33.387Z%22%20agent%3D%22Mozilla%2F5.0%20(Windows%20NT%2010.0%3B%20Win64%3B%20x64)%20AppleWebKit%2F537.36%20(KHTML%2C%20like%20Gecko)%20Chrome%2F119.0.0.0%20Safari%2F537.36%20Edg%2F119.0.0.0%22%20etag%3D%22cvD_sf5Uh9dlG11l9mfV%22%20version%3D%2222.1.0%22%20type%3D%22onedrive%22%3E%20%20%20%3Cdiagram%20id%3D%22-Ee33xsKjlGcrj2g-W_m%22%20name%3D%22P%C3%A1gina-12%22%3E%20%20%20%20%20%3CmxGraphModel%20dx%3D%22691%22%20dy%3D%22388%22%20grid%3D%221%22%20gridSize%3D%2210%22%20guides%3D%221%22%20tooltips%3D%221%22%20connect%3D%221%22%20arrows%3D%221%22%20fold%3D%221%22%20page%3D%220%22%20pageScale%3D%221%22%20pageWidth%3D%221100%22%20pageHeight%3D%22850%22%20math%3D%220%22%20shadow%3D%220%22%3E%20%20%20%20%20%20%20%3Croot%3E%20%20%20%20%20%20%20%20%20%3CmxCell%20id%3D%220%22%20%2F%3E%20%20%20%20%20%20%20%20%20%3CmxCell%20id%3D%221%22%20parent%3D%220%22%20%2F%3E%20%20%20%20%20%20%20%20%20%3CmxCell%20id%3D%22HW9YnH1HhD8cK0tddaiK-1%22%20value%3D%22%22%20style%3D%22endArrow%3Dnone%3Bdashed%3D1%3Bhtml%3D1%3Brounded%3D0%3BstrokeWidth%3D2%3BentryX%3D0.5%3BentryY%3D1%3BentryDx%3D0%3BentryDy%3D0%3BfontFamily%3DNimbus%20Roman%20No9%20L%3BfontSource%3Dhttps%253A%252F%252Fwww.1001fonts.com%252Fdownload%252Ffont%252Fnimbus-roman-no9-l.regular.otf%3BfontSize%3D10.9%3BfontStyle%3D0%22%20parent%3D%221%22%20edge%3D%221%22%3E%20%20%20%20%20%20%20%20%20%20%20%3CmxGeometry%20width%3D%2250%22%20height%3D%2250%22%20relative%3D%221%22%20as%3D%22geometry%22%3E%20%20%20%20%20%20%20%20%20%20%20%20%20%3CmxPoint%20x%3D%22280%22%20y%3D%22530%22%20as%3D%22sourcePoint%22%20%2F%3E%20%20%20%20%20%20%20%20%20%20%20%20%20%3CmxPoint%20x%3D%22280%22%20y%3D%22280%22%20as%3D%22targetPoint%22%20%2F%3E%20%20%20%20%20%20%20%20%20%20%20%3C%2FmxGeometry%3E%20%20%20%20%20%20%20%20%20%3C%2FmxCell%3E%20%20%20%20%20%20%20%20%20%3CmxCell%20id%3D%22HW9YnH1HhD8cK0tddaiK-2%22%20value%3D%22%22%20style%3D%22endArrow%3Dnone%3Bhtml%3D1%3Brounded%3D0%3BstrokeWidth%3D2%3BfontSize%3D10.9%3BfontStyle%3D0%3BfontFamily%3DNimbus%20Roman%20No9%20L%3BfontSource%3Dhttps%253A%252F%252Fwww.1001fonts.com%252Fdownload%252Ffont%252Fnimbus-roman-no9-l.regular.otf%3B%22%20parent%3D%221%22%20edge%3D%221%22%3E%20%20%20%20%20%20%20%20%20%20%20%3CmxGeometry%20width%3D%2250%22%20height%3D%2250%22%20relative%3D%221%22%20as%3D%22geometry%22%3E%20%20%20%20%20%20%20%20%20%20%20%20%20%3CmxPoint%20x%3D%22280%22%20y%3D%22390%22%20as%3D%22sourcePoint%22%20%2F%3E%20%20%20%20%20%20%20%20%20%20%20%20%20%3CmxPoint%20x%3D%22680%22%20y%3D%22390%22%20as%3D%22targetPoint%22%20%2F%3E%20%20%20%20%20%20%20%20%20%20%20%3C%2FmxGeometry%3E%20%20%20%20%20%20%20%20%20%3C%2FmxCell%3E%20%20%20%20%20%20%20%20%20%3CmxCell%20id%3D%22HW9YnH1HhD8cK0tddaiK-3%22%20value%3D%22%22%20style%3D%22endArrow%3Dclassic%3Bhtml%3D1%3Brounded%3D0%3BstrokeWidth%3D2%3BendFill%3D1%3BfontSize%3D10.9%3BfontStyle%3D0%3BfontFamily%3DNimbus%20Roman%20No9%20L%3BfontSource%3Dhttps%253A%252F%252Fwww.1001fonts.com%252Fdownload%252Ffont%252Fnimbus-roman-no9-l.regular.otf%3BstrokeColor%3D%23FF1818%3B%22%20parent%3D%221%22%20edge%3D%221%22%3E%20%20%20%20%20%20%20%20%20%20%20%3CmxGeometry%20width%3D%2250%22%20height%3D%2250%22%20relative%3D%221%22%20as%3D%22geometry%22%3E%20%20%20%20%20%20%20%20%20%20%20%20%20%3CmxPoint%20x%3D%22280%22%20y%3D%22390%22%20as%3D%22sourcePoint%22%20%2F%3E%20%20%20%20%20%20%20%20%20%20%20%20%20%3CmxPoint%20x%3D%22280%22%20y%3D%22450%22%20as%3D%22targetPoint%22%20%2F%3E%20%20%20%20%20%20%20%20%20%20%20%3C%2FmxGeometry%3E%20%20%20%20%20%20%20%20%20%3C%2FmxCell%3E%20%20%20%20%20%20%20%20%20%3CmxCell%20id%3D%22HW9YnH1HhD8cK0tddaiK-4%22%20style%3D%22edgeStyle%3DorthogonalEdgeStyle%3Brounded%3D0%3BorthogonalLoop%3D1%3BjettySize%3Dauto%3Bhtml%3D1%3BexitX%3D0.5%3BexitY%3D1%3BexitDx%3D0%3BexitDy%3D0%3BfontSize%3D10.9%3BfontStyle%3D0%3BstrokeWidth%3D2%3BfontFamily%3DNimbus%20Roman%20No9%20L%3BfontSource%3Dhttps%253A%252F%252Fwww.1001fonts.com%252Fdownload%252Ffont%252Fnimbus-roman-no9-l.regular.otf%3B%22%20parent%3D%221%22%20edge%3D%221%22%3E%20%20%20%20%20%20%20%20%20%20%20%3CmxGeometry%20relative%3D%221%22%20as%3D%22geometry%22%3E%20%20%20%20%20%20%20%20%20%20%20%20%20%3CmxPoint%20x%3D%22260%22%20y%3D%22390%22%20as%3D%22sourcePoint%22%20%2F%3E%20%20%20%20%20%20%20%20%20%20%20%20%20%3CmxPoint%20x%3D%22260%22%20y%3D%22390%22%20as%3D%22targetPoint%22%20%2F%3E%20%20%20%20%20%20%20%20%20%20%20%3C%2FmxGeometry%3E%20%20%20%20%20%20%20%20%20%3C%2FmxCell%3E%20%20%20%20%20%20%20%20%20%3CmxCell%20id%3D%22HW9YnH1HhD8cK0tddaiK-5%22%20value%3D%22%22%20style%3D%22endArrow%3Dclassic%3Bhtml%3D1%3Brounded%3D0%3BfontSize%3D10.9%3BstrokeWidth%3D2%3BendFill%3D1%3BfontStyle%3D0%3BentryX%3D0.5%3BentryY%3D1%3BentryDx%3D0%3BentryDy%3D0%3BfontFamily%3DNimbus%20Roman%20No9%20L%3BfontSource%3Dhttps%253A%252F%252Fwww.1001fonts.com%252Fdownload%252Ffont%252Fnimbus-roman-no9-l.regular.otf%3BstrokeColor%3D%231AFF1F%3B%22%20parent%3D%221%22%20edge%3D%221%22%3E%20%20%20%20%20%20%20%20%20%20%20%3CmxGeometry%20width%3D%2250%22%20height%3D%2250%22%20relative%3D%221%22%20as%3D%22geometry%22%3E%20%20%20%20%20%20%20%20%20%20%20%20%20%3CmxPoint%20x%3D%22680%22%20y%3D%22390%22%20as%3D%22sourcePoint%22%20%2F%3E%20%20%20%20%20%20%20%20%20%20%20%20%20%3CmxPoint%20x%3D%22680.5%22%20y%3D%22320%22%20as%3D%22targetPoint%22%20%2F%3E%20%20%20%20%20%20%20%20%20%20%20%3C%2FmxGeometry%3E%20%20%20%20%20%20%20%20%20%3C%2FmxCell%3E%20%20%20%20%20%20%20%20%20%3CmxCell%20id%3D%22HW9YnH1HhD8cK0tddaiK-6%22%20value%3D%2259.660%2C80%20COP%22%20style%3D%22text%3Bhtml%3D1%3BstrokeColor%3Dnone%3BfillColor%3Dnone%3Balign%3Dcenter%3BverticalAlign%3Dmiddle%3BwhiteSpace%3Dwrap%3Brounded%3D0%3BfontSize%3D10.9%3BfontStyle%3D0%3BstrokeWidth%3D2%3BfontFamily%3DNimbus%20Roman%20No9%20L%3BfontSource%3Dhttps%253A%252F%252Fwww.1001fonts.com%252Fdownload%252Ffont%252Fnimbus-roman-no9-l.regular.otf%3B%22%20parent%3D%221%22%20vertex%3D%221%22%3E%20%20%20%20%20%20%20%20%20%20%20%3CmxGeometry%20x%3D%22180%22%20y%3D%22425%22%20width%3D%22100%22%20height%3D%2230%22%20as%3D%22geometry%22%20%2F%3E%20%20%20%20%20%20%20%20%20%3C%2FmxCell%3E%20%20%20%20%20%20%20%20%20%3CmxCell%20id%3D%22HW9YnH1HhD8cK0tddaiK-8%22%20value%3D%221%22%20style%3D%22text%3Bhtml%3D1%3BstrokeColor%3Dnone%3BfillColor%3Dnone%3Balign%3Dcenter%3BverticalAlign%3Dmiddle%3BwhiteSpace%3Dwrap%3Brounded%3D0%3BfontSize%3D10.9%3BfontStyle%3D0%3BstrokeWidth%3D2%3BfontFamily%3DNimbus%20Roman%20No9%20L%3BfontSource%3Dhttps%253A%252F%252Fwww.1001fonts.com%252Fdownload%252Ffont%252Fnimbus-roman-no9-l.regular.otf%3B%22%20parent%3D%221%22%20vertex%3D%221%22%3E%20%20%20%20%20%20%20%20%20%20%20%3CmxGeometry%20x%3D%22320%22%20y%3D%22390%22%20width%3D%2260%22%20height%3D%2230%22%20as%3D%22geometry%22%20%2F%3E%20%20%20%20%20%20%20%20%20%3C%2FmxCell%3E%20%20%20%20%20%20%20%20%20%3CmxCell%20id%3D%22HW9YnH1HhD8cK0tddaiK-9%22%20value%3D%22%26lt%3Bfont%20style%3D%26quot%3Bfont-size%3A%2010.9px%3B%26quot%3B%26gt%3Bpmv%26lt%3B%2Ffont%26gt%3B%22%20style%3D%22text%3Bhtml%3D1%3BstrokeColor%3Dnone%3BfillColor%3Dnone%3Balign%3Dcenter%3BverticalAlign%3Dmiddle%3BwhiteSpace%3Dwrap%3Brounded%3D0%3BfontStyle%3D0%3BstrokeWidth%3D2%3BfontFamily%3DNimbus%20Roman%20No9%20L%3BfontSource%3Dhttps%253A%252F%252Fwww.1001fonts.com%252Fdownload%252Ffont%252Fnimbus-roman-no9-l.regular.otf%3BfontSize%3D10.9%3B%22%20parent%3D%221%22%20vertex%3D%221%22%3E%20%20%20%20%20%20%20%20%20%20%20%3CmxGeometry%20x%3D%22670%22%20y%3D%22370%22%20width%3D%2260%22%20height%3D%2230%22%20as%3D%22geometry%22%20%2F%3E%20%20%20%20%20%20%20%20%20%3C%2FmxCell%3E%20%20%20%20%20%20%20%20%20%3CmxCell%20id%3D%22HW9YnH1HhD8cK0tddaiK-11%22%20value%3D%223%22%20style%3D%22text%3Bhtml%3D1%3BstrokeColor%3Dnone%3BfillColor%3Dnone%3Balign%3Dcenter%3BverticalAlign%3Dmiddle%3BwhiteSpace%3Dwrap%3Brounded%3D0%3BfontStyle%3D0%3BfontSize%3D10.9%3BstrokeWidth%3D2%3BfontFamily%3DNimbus%20Roman%20No9%20L%3BfontSource%3Dhttps%253A%252F%252Fwww.1001fonts.com%252Fdownload%252Ffont%252Fnimbus-roman-no9-l.regular.otf%3B%22%20parent%3D%221%22%20vertex%3D%221%22%3E%20%20%20%20%20%20%20%20%20%20%20%3CmxGeometry%20x%3D%22490%22%20y%3D%22390%22%20width%3D%2260%22%20height%3D%2230%22%20as%3D%22geometry%22%20%2F%3E%20%20%20%20%20%20%20%20%20%3C%2FmxCell%3E%20%20%20%20%20%20%20%20%20%3CmxCell%20id%3D%22HW9YnH1HhD8cK0tddaiK-13%22%20value%3D%22pf%22%20style%3D%22text%3Bhtml%3D1%3BstrokeColor%3Dnone%3BfillColor%3Dnone%3Balign%3Dcenter%3BverticalAlign%3Dmiddle%3BwhiteSpace%3Dwrap%3Brounded%3D0%3BfontSize%3D10.9%3BstrokeWidth%3D2%3BfontFamily%3DNimbus%20Roman%20No9%20L%3BfontSource%3Dhttps%253A%252F%252Fwww.1001fonts.com%252Fdownload%252Ffont%252Fnimbus-roman-no9-l.regular.otf%3BfontStyle%3D0%22%20parent%3D%221%22%20vertex%3D%221%22%3E%20%20%20%20%20%20%20%20%20%20%20%3CmxGeometry%20x%3D%22250%22%20y%3D%22250%22%20width%3D%2260%22%20height%3D%2230%22%20as%3D%22geometry%22%20%2F%3E%20%20%20%20%20%20%20%20%20%3C%2FmxCell%3E%20%20%20%20%20%20%20%20%20%3CmxCell%20id%3D%22HW9YnH1HhD8cK0tddaiK-14%22%20value%3D%22%22%20style%3D%22endArrow%3Dnone%3Bhtml%3D1%3Brounded%3D0%3Bdashed%3D1%3BstrokeWidth%3D2%3BendFill%3D0%3BstrokeColor%3D%230A21B3%3BedgeStyle%3DorthogonalEdgeStyle%3Bcurved%3D1%3BstartArrow%3Dclassic%3BstartFill%3D1%3BfontFamily%3DNimbus%20Roman%20No9%20L%3BfontSource%3Dhttps%253A%252F%252Fwww.1001fonts.com%252Fdownload%252Ffont%252Fnimbus-roman-no9-l.regular.otf%3BfontSize%3D10.9%3BfontStyle%3D0%3BentryX%3D0.662%3BentryY%3D0.045%3BentryDx%3D0%3BentryDy%3D0%3BentryPerimeter%3D0%3B%22%20parent%3D%221%22%20target%3D%22HW9YnH1HhD8cK0tddaiK-17%22%20edge%3D%221%22%3E%20%20%20%20%20%20%20%20%20%20%20%3CmxGeometry%20width%3D%2250%22%20height%3D%2250%22%20relative%3D%221%22%20as%3D%22geometry%22%3E%20%20%20%20%20%20%20%20%20%20%20%20%20%3CmxPoint%20x%3D%22280%22%20y%3D%22390%22%20as%3D%22sourcePoint%22%20%2F%3E%20%20%20%20%20%20%20%20%20%20%20%20%20%3CmxPoint%20x%3D%22680%22%20y%3D%22430%22%20as%3D%22targetPoint%22%20%2F%3E%20%20%20%20%20%20%20%20%20%20%20%20%20%3CArray%20as%3D%22points%22%3E%20%20%20%20%20%20%20%20%20%20%20%20%20%20%20%3CmxPoint%20x%3D%22280%22%20y%3D%22470%22%20%2F%3E%20%20%20%20%20%20%20%20%20%20%20%20%20%20%20%3CmxPoint%20x%3D%22680%22%20y%3D%22470%22%20%2F%3E%20%20%20%20%20%20%20%20%20%20%20%20%20%3C%2FArray%3E%20%20%20%20%20%20%20%20%20%20%20%3C%2FmxGeometry%3E%20%20%20%20%20%20%20%20%20%3C%2FmxCell%3E%20%20%20%20%20%20%20%20%20%3CmxCell%20id%3D%22HW9YnH1HhD8cK0tddaiK-15%22%20value%3D%222%22%20style%3D%22text%3Bhtml%3D1%3BstrokeColor%3Dnone%3BfillColor%3Dnone%3Balign%3Dcenter%3BverticalAlign%3Dmiddle%3BwhiteSpace%3Dwrap%3Brounded%3D0%3BfontSize%3D10.9%3BfontStyle%3D0%3BstrokeWidth%3D2%3BfontFamily%3DNimbus%20Roman%20No9%20L%3BfontSource%3Dhttps%253A%252F%252Fwww.1001fonts.com%252Fdownload%252Ffont%252Fnimbus-roman-no9-l.regular.otf%3B%22%20parent%3D%221%22%20vertex%3D%221%22%3E%20%20%20%20%20%20%20%20%20%20%20%3CmxGeometry%20x%3D%22412.5%22%20y%3D%22390%22%20width%3D%2260%22%20height%3D%2230%22%20as%3D%22geometry%22%20%2F%3E%20%20%20%20%20%20%20%20%20%3C%2FmxCell%3E%20%20%20%20%20%20%20%20%20%3CmxCell%20id%3D%22HW9YnH1HhD8cK0tddaiK-16%22%20value%3D%224%22%20style%3D%22text%3Bhtml%3D1%3BstrokeColor%3Dnone%3BfillColor%3Dnone%3Balign%3Dcenter%3BverticalAlign%3Dmiddle%3BwhiteSpace%3Dwrap%3Brounded%3D0%3BfontStyle%3D0%3BfontSize%3D10.9%3BstrokeWidth%3D2%3BfontFamily%3DNimbus%20Roman%20No9%20L%3BfontSource%3Dhttps%253A%252F%252Fwww.1001fonts.com%252Fdownload%252Ffont%252Fnimbus-roman-no9-l.regular.otf%3B%22%20parent%3D%221%22%20vertex%3D%221%22%3E%20%20%20%20%20%20%20%20%20%20%20%3CmxGeometry%20x%3D%22570%22%20y%3D%22390%22%20width%3D%2260%22%20height%3D%2230%22%20as%3D%22geometry%22%20%2F%3E%20%20%20%20%20%20%20%20%20%3C%2FmxCell%3E%20%20%20%20%20%20%20%20%20%3CmxCell%20id%3D%22HW9YnH1HhD8cK0tddaiK-17%22%20value%3D%225%22%20style%3D%22text%3Bhtml%3D1%3BstrokeColor%3Dnone%3BfillColor%3Dnone%3Balign%3Dcenter%3BverticalAlign%3Dmiddle%3BwhiteSpace%3Dwrap%3Brounded%3D0%3BfontStyle%3D0%3BfontSize%3D10.9%3BstrokeWidth%3D2%3BfontFamily%3DNimbus%20Roman%20No9%20L%3BfontSource%3Dhttps%253A%252F%252Fwww.1001fonts.com%252Fdownload%252Ffont%252Fnimbus-roman-no9-l.regular.otf%3B%22%20parent%3D%221%22%20vertex%3D%221%22%3E%20%20%20%20%20%20%20%20%20%20%20%3CmxGeometry%20x%3D%22640%22%20y%3D%22390%22%20width%3D%2260%22%20height%3D%2230%22%20as%3D%22geometry%22%20%2F%3E%20%20%20%20%20%20%20%20%20%3C%2FmxCell%3E%20%20%20%20%20%20%20%20%20%3CmxCell%20id%3D%22HW9YnH1HhD8cK0tddaiK-19%22%20value%3D%22219.700%20COP%22%20style%3D%22text%3Bhtml%3D1%3BstrokeColor%3Dnone%3BfillColor%3Dnone%3Balign%3Dcenter%3BverticalAlign%3Dmiddle%3BwhiteSpace%3Dwrap%3Brounded%3D0%3BfontSize%3D10.9%3BfontStyle%3D0%3BstrokeWidth%3D2%3BfontFamily%3DNimbus%20Roman%20No9%20L%3BfontSource%3Dhttps%253A%252F%252Fwww.1001fonts.com%252Fdownload%252Ffont%252Fnimbus-roman-no9-l.regular.otf%3B%22%20parent%3D%221%22%20vertex%3D%221%22%3E%20%20%20%20%20%20%20%20%20%20%20%3CmxGeometry%20x%3D%22570%22%20y%3D%22310%22%20width%3D%22130%22%20height%3D%2230%22%20as%3D%22geometry%22%20%2F%3E%20%20%20%20%20%20%20%20%20%3C%2FmxCell%3E%20%20%20%20%20%20%20%20%20%3CmxCell%20id%3D%22HW9YnH1HhD8cK0tddaiK-21%22%20value%3D%22i%20%3D%20%3F%25%20pmv%22%20style%3D%22text%3Bhtml%3D1%3BstrokeColor%3Dnone%3BfillColor%3Dnone%3Balign%3Dcenter%3BverticalAlign%3Dmiddle%3BwhiteSpace%3Dwrap%3Brounded%3D0%3BfontStyle%3D0%3BfontSize%3D10.9%3BstrokeWidth%3D2%3BfontFamily%3DNimbus%20Roman%20No9%20L%3BfontSource%3Dhttps%253A%252F%252Fwww.1001fonts.com%252Fdownload%252Ffont%252Fnimbus-roman-no9-l.regular.otf%3B%22%20parent%3D%221%22%20vertex%3D%221%22%3E%20%20%20%20%20%20%20%20%20%20%20%3CmxGeometry%20x%3D%22430%22%20y%3D%22420%22%20width%3D%2295%22%20height%3D%2230%22%20as%3D%22geometry%22%20%2F%3E%20%20%20%20%20%20%20%20%20%3C%2FmxCell%3E%20%20%20%20%20%20%20%20%20%3CmxCell%20id%3D%22HW9YnH1HhD8cK0tddaiK-22%22%20value%3D%22%26lt%3Bspan%20style%3D%26quot%3Bfont-size%3A%2010.9px%3B%26quot%3B%26gt%3Bn%20%3D%205%20pmv%26lt%3B%2Fspan%26gt%3B%22%20style%3D%22text%3Bhtml%3D1%3BstrokeColor%3Dnone%3BfillColor%3Dnone%3Balign%3Dcenter%3BverticalAlign%3Dmiddle%3BwhiteSpace%3Dwrap%3Brounded%3D0%3BfontSize%3D10.9%3BstrokeWidth%3D2%3BfontFamily%3DNimbus%20Roman%20No9%20L%3BfontSource%3Dhttps%253A%252F%252Fwww.1001fonts.com%252Fdownload%252Ffont%252Fnimbus-roman-no9-l.regular.otf%3BfontStyle%3D0%22%20parent%3D%221%22%20vertex%3D%221%22%3E%20%20%20%20%20%20%20%20%20%20%20%3CmxGeometry%20x%3D%22437.5%22%20y%3D%22440%22%20width%3D%2280%22%20height%3D%2230%22%20as%3D%22geometry%22%20%2F%3E%20%20%20%20%20%20%20%20%20%3C%2FmxCell%3E%20%20%20%20%20%20%20%20%20%3CmxCell%20id%3D%22AGElty_W3GPCGD5I5CDL-1%22%20value%3D%220%22%20style%3D%22text%3Bhtml%3D1%3BstrokeColor%3Dnone%3BfillColor%3Dnone%3Balign%3Dcenter%3BverticalAlign%3Dmiddle%3BwhiteSpace%3Dwrap%3Brounded%3D0%3BfontSize%3D10.9%3BfontStyle%3D0%3BstrokeWidth%3D2%3BfontFamily%3DNimbus%20Roman%20No9%20L%3BfontSource%3Dhttps%253A%252F%252Fwww.1001fonts.com%252Fdownload%252Ffont%252Fnimbus-roman-no9-l.regular.otf%3B%22%20parent%3D%221%22%20vertex%3D%221%22%3E%20%20%20%20%20%20%20%20%20%20%20%3CmxGeometry%20x%3D%22240%22%20y%3D%22390%22%20width%3D%2260%22%20height%3D%2230%22%20as%3D%22geometry%22%20%2F%3E%20%20%20%20%20%20%20%20%20%3C%2FmxCell%3E%20%20%20%20%20%20%20%3C%2Froot%3E%20%20%20%20%20%3C%2FmxGraphModel%3E%20%20%20%3C%2Fdiagram%3E%20%3C%2Fmxfile%3E%20">
  <defs
     id="defs80">
    <g
       id="g78">
      <g
         id="glyph-0-0">
        <path
           d="M 1.140625 0 L 1.140625 -5.109375 L 5.21875 -5.109375 L 5.21875 0 Z M 1.265625 -0.125 L 5.09375 -0.125 L 5.09375 -4.984375 L 1.265625 -4.984375 Z M 1.265625 -0.125 "
           id="path2" />
      </g>
      <g
         id="glyph-0-1">
        <path
           d="M 3.546875 -5.40625 L 3.234375 -4.734375 L 1.609375 -4.734375 L 1.25 -4 C 1.957031 -3.894531 2.515625 -3.632813 2.921875 -3.21875 C 3.273438 -2.851563 3.453125 -2.425781 3.453125 -1.9375 C 3.453125 -1.65625 3.394531 -1.394531 3.28125 -1.15625 C 3.164063 -0.914063 3.019531 -0.707031 2.84375 -0.53125 C 2.664063 -0.363281 2.472656 -0.226563 2.265625 -0.125 C 1.953125 0.0195313 1.640625 0.09375 1.328125 0.09375 C 0.992188 0.09375 0.753906 0.0390625 0.609375 -0.0625 C 0.460938 -0.175781 0.390625 -0.300781 0.390625 -0.4375 C 0.390625 -0.507813 0.421875 -0.570313 0.484375 -0.625 C 0.546875 -0.6875 0.625 -0.71875 0.71875 -0.71875 C 0.78125 -0.71875 0.835938 -0.707031 0.890625 -0.6875 C 0.941406 -0.664063 1.03125 -0.609375 1.15625 -0.515625 C 1.351563 -0.378906 1.554688 -0.3125 1.765625 -0.3125 C 2.078125 -0.3125 2.347656 -0.425781 2.578125 -0.65625 C 2.816406 -0.894531 2.9375 -1.1875 2.9375 -1.53125 C 2.9375 -1.851563 2.832031 -2.15625 2.625 -2.4375 C 2.414063 -2.726563 2.125 -2.945313 1.75 -3.09375 C 1.46875 -3.21875 1.078125 -3.289063 0.578125 -3.3125 L 1.609375 -5.40625 Z M 3.546875 -5.40625 "
           id="path5" />
      </g>
      <g
         id="glyph-0-2">
        <path
           d="M 0.4375 0.109375 L 0.4375 -0.03125 C 0.78125 -0.0390625 1.097656 -0.125 1.390625 -0.28125 C 1.691406 -0.4375 1.976563 -0.707031 2.25 -1.09375 C 2.53125 -1.476563 2.726563 -1.90625 2.84375 -2.375 C 2.425781 -2.101563 2.046875 -1.96875 1.703125 -1.96875 C 1.328125 -1.96875 1.003906 -2.113281 0.734375 -2.40625 C 0.460938 -2.707031 0.328125 -3.097656 0.328125 -3.578125 C 0.328125 -4.054688 0.460938 -4.476563 0.734375 -4.84375 C 1.054688 -5.289063 1.484375 -5.515625 2.015625 -5.515625 C 2.453125 -5.515625 2.832031 -5.332031 3.15625 -4.96875 C 3.539063 -4.519531 3.734375 -3.957031 3.734375 -3.28125 C 3.734375 -2.6875 3.582031 -2.128906 3.28125 -1.609375 C 2.988281 -1.085938 2.582031 -0.65625 2.0625 -0.3125 C 1.632813 -0.03125 1.164063 0.109375 0.65625 0.109375 Z M 2.90625 -2.671875 C 2.957031 -3.015625 2.984375 -3.289063 2.984375 -3.5 C 2.984375 -3.757813 2.9375 -4.035156 2.84375 -4.328125 C 2.757813 -4.628906 2.632813 -4.859375 2.46875 -5.015625 C 2.3125 -5.179688 2.128906 -5.265625 1.921875 -5.265625 C 1.679688 -5.265625 1.472656 -5.15625 1.296875 -4.9375 C 1.117188 -4.726563 1.03125 -4.414063 1.03125 -4 C 1.03125 -3.4375 1.148438 -2.992188 1.390625 -2.671875 C 1.554688 -2.441406 1.769531 -2.328125 2.03125 -2.328125 C 2.144531 -2.328125 2.285156 -2.359375 2.453125 -2.421875 C 2.628906 -2.484375 2.78125 -2.566406 2.90625 -2.671875 Z M 2.90625 -2.671875 "
           id="path8" />
      </g>
      <g
         id="glyph-0-3">
        <path
           d="M 1.015625 -0.78125 C 1.140625 -0.78125 1.242188 -0.734375 1.328125 -0.640625 C 1.421875 -0.554688 1.46875 -0.453125 1.46875 -0.328125 C 1.46875 -0.203125 1.421875 -0.0976563 1.328125 -0.015625 C 1.242188 0.0664063 1.140625 0.109375 1.015625 0.109375 C 0.898438 0.109375 0.796875 0.0664063 0.703125 -0.015625 C 0.617188 -0.0976563 0.578125 -0.203125 0.578125 -0.328125 C 0.578125 -0.453125 0.617188 -0.554688 0.703125 -0.640625 C 0.796875 -0.734375 0.898438 -0.78125 1.015625 -0.78125 Z M 1.015625 -0.78125 "
           id="path11" />
      </g>
      <g
         id="glyph-0-4">
        <path
           d="M 3.65625 -5.515625 L 3.65625 -5.375 C 3.3125 -5.34375 3.023438 -5.269531 2.796875 -5.15625 C 2.578125 -5.050781 2.359375 -4.890625 2.140625 -4.671875 C 1.921875 -4.460938 1.738281 -4.222656 1.59375 -3.953125 C 1.457031 -3.691406 1.34375 -3.378906 1.25 -3.015625 C 1.632813 -3.285156 2.019531 -3.421875 2.40625 -3.421875 C 2.769531 -3.421875 3.085938 -3.269531 3.359375 -2.96875 C 3.628906 -2.664063 3.765625 -2.28125 3.765625 -1.8125 C 3.765625 -1.363281 3.628906 -0.953125 3.359375 -0.578125 C 3.023438 -0.128906 2.585938 0.09375 2.046875 0.09375 C 1.679688 0.09375 1.367188 -0.0234375 1.109375 -0.265625 C 0.597656 -0.742188 0.34375 -1.363281 0.34375 -2.125 C 0.34375 -2.601563 0.441406 -3.0625 0.640625 -3.5 C 0.835938 -3.9375 1.113281 -4.320313 1.46875 -4.65625 C 1.832031 -5 2.175781 -5.226563 2.5 -5.34375 C 2.832031 -5.457031 3.144531 -5.515625 3.4375 -5.515625 Z M 1.1875 -2.734375 C 1.132813 -2.367188 1.109375 -2.078125 1.109375 -1.859375 C 1.109375 -1.597656 1.15625 -1.316406 1.25 -1.015625 C 1.34375 -0.722656 1.484375 -0.488281 1.671875 -0.3125 C 1.804688 -0.1875 1.972656 -0.125 2.171875 -0.125 C 2.398438 -0.125 2.601563 -0.234375 2.78125 -0.453125 C 2.96875 -0.671875 3.0625 -0.984375 3.0625 -1.390625 C 3.0625 -1.847656 2.96875 -2.238281 2.78125 -2.5625 C 2.601563 -2.894531 2.347656 -3.0625 2.015625 -3.0625 C 1.921875 -3.0625 1.8125 -3.039063 1.6875 -3 C 1.570313 -2.957031 1.40625 -2.867188 1.1875 -2.734375 Z M 1.1875 -2.734375 "
           id="path14" />
      </g>
      <g
         id="glyph-0-5">
        <path
           d="M 0.296875 -2.671875 C 0.296875 -3.285156 0.390625 -3.816406 0.578125 -4.265625 C 0.765625 -4.710938 1.007813 -5.046875 1.3125 -5.265625 C 1.550781 -5.429688 1.800781 -5.515625 2.0625 -5.515625 C 2.476563 -5.515625 2.847656 -5.304688 3.171875 -4.890625 C 3.585938 -4.367188 3.796875 -3.65625 3.796875 -2.75 C 3.796875 -2.125 3.703125 -1.59375 3.515625 -1.15625 C 3.335938 -0.71875 3.109375 -0.398438 2.828125 -0.203125 C 2.546875 -0.00390625 2.273438 0.09375 2.015625 0.09375 C 1.503906 0.09375 1.078125 -0.207031 0.734375 -0.8125 C 0.441406 -1.332031 0.296875 -1.953125 0.296875 -2.671875 Z M 1.078125 -2.578125 C 1.078125 -1.828125 1.171875 -1.21875 1.359375 -0.75 C 1.503906 -0.351563 1.726563 -0.15625 2.03125 -0.15625 C 2.175781 -0.15625 2.320313 -0.21875 2.46875 -0.34375 C 2.625 -0.476563 2.742188 -0.695313 2.828125 -1 C 2.953125 -1.457031 3.015625 -2.101563 3.015625 -2.9375 C 3.015625 -3.550781 2.953125 -4.066406 2.828125 -4.484375 C 2.722656 -4.785156 2.597656 -5 2.453125 -5.125 C 2.335938 -5.21875 2.207031 -5.265625 2.0625 -5.265625 C 1.875 -5.265625 1.710938 -5.179688 1.578125 -5.015625 C 1.378906 -4.796875 1.242188 -4.445313 1.171875 -3.96875 C 1.109375 -3.5 1.078125 -3.035156 1.078125 -2.578125 Z M 1.078125 -2.578125 "
           id="path17" />
      </g>
      <g
         id="glyph-0-6">
        <path
           d="M 0.4375 1.359375 L 0.4375 1.1875 C 0.707031 1.09375 0.914063 0.953125 1.0625 0.765625 C 1.21875 0.578125 1.296875 0.375 1.296875 0.15625 C 1.296875 0.101563 1.285156 0.0625 1.265625 0.03125 C 1.242188 0.0078125 1.222656 0 1.203125 0 C 1.179688 0 1.117188 0.0234375 1.015625 0.078125 C 0.972656 0.0976563 0.921875 0.109375 0.859375 0.109375 C 0.734375 0.109375 0.628906 0.0703125 0.546875 0 C 0.472656 -0.0820313 0.4375 -0.191406 0.4375 -0.328125 C 0.4375 -0.453125 0.484375 -0.5625 0.578125 -0.65625 C 0.679688 -0.75 0.804688 -0.796875 0.953125 -0.796875 C 1.128906 -0.796875 1.285156 -0.71875 1.421875 -0.5625 C 1.554688 -0.414063 1.625 -0.210938 1.625 0.046875 C 1.625 0.316406 1.53125 0.566406 1.34375 0.796875 C 1.15625 1.035156 0.851563 1.222656 0.4375 1.359375 Z M 0.4375 1.359375 "
           id="path20" />
      </g>
      <g
         id="glyph-0-7">
        <path
           d="M 1.5625 -2.71875 C 1.132813 -3.070313 0.859375 -3.351563 0.734375 -3.5625 C 0.609375 -3.78125 0.546875 -4.003906 0.546875 -4.234375 C 0.546875 -4.585938 0.679688 -4.890625 0.953125 -5.140625 C 1.234375 -5.390625 1.597656 -5.515625 2.046875 -5.515625 C 2.484375 -5.515625 2.832031 -5.394531 3.09375 -5.15625 C 3.363281 -4.925781 3.5 -4.660156 3.5 -4.359375 C 3.5 -4.148438 3.425781 -3.941406 3.28125 -3.734375 C 3.132813 -3.523438 2.832031 -3.28125 2.375 -3 C 2.84375 -2.632813 3.15625 -2.347656 3.3125 -2.140625 C 3.507813 -1.867188 3.609375 -1.582031 3.609375 -1.28125 C 3.609375 -0.90625 3.460938 -0.582031 3.171875 -0.3125 C 2.890625 -0.0390625 2.507813 0.09375 2.03125 0.09375 C 1.519531 0.09375 1.125 -0.0664063 0.84375 -0.390625 C 0.613281 -0.648438 0.5 -0.929688 0.5 -1.234375 C 0.5 -1.472656 0.578125 -1.707031 0.734375 -1.9375 C 0.898438 -2.175781 1.175781 -2.4375 1.5625 -2.71875 Z M 2.1875 -3.15625 C 2.507813 -3.4375 2.710938 -3.660156 2.796875 -3.828125 C 2.878906 -3.992188 2.921875 -4.179688 2.921875 -4.390625 C 2.921875 -4.671875 2.84375 -4.890625 2.6875 -5.046875 C 2.53125 -5.210938 2.316406 -5.296875 2.046875 -5.296875 C 1.773438 -5.296875 1.554688 -5.210938 1.390625 -5.046875 C 1.222656 -4.890625 1.140625 -4.707031 1.140625 -4.5 C 1.140625 -4.363281 1.171875 -4.222656 1.234375 -4.078125 C 1.304688 -3.941406 1.410156 -3.8125 1.546875 -3.6875 Z M 1.75 -2.578125 C 1.53125 -2.390625 1.367188 -2.1875 1.265625 -1.96875 C 1.160156 -1.75 1.109375 -1.507813 1.109375 -1.25 C 1.109375 -0.90625 1.203125 -0.628906 1.390625 -0.421875 C 1.578125 -0.222656 1.816406 -0.125 2.109375 -0.125 C 2.390625 -0.125 2.613281 -0.203125 2.78125 -0.359375 C 2.957031 -0.523438 3.046875 -0.722656 3.046875 -0.953125 C 3.046875 -1.140625 3 -1.3125 2.90625 -1.46875 C 2.71875 -1.75 2.332031 -2.117188 1.75 -2.578125 Z M 1.75 -2.578125 "
           id="path23" />
      </g>
      <g
         id="glyph-0-8" />
      <g
         id="glyph-0-9">
        <path
           d="M 4.921875 -5.53125 L 5.046875 -3.6875 L 4.921875 -3.6875 C 4.753906 -4.238281 4.515625 -4.632813 4.203125 -4.875 C 3.898438 -5.125 3.535156 -5.25 3.109375 -5.25 C 2.753906 -5.25 2.429688 -5.15625 2.140625 -4.96875 C 1.847656 -4.789063 1.617188 -4.5 1.453125 -4.09375 C 1.285156 -3.695313 1.203125 -3.203125 1.203125 -2.609375 C 1.203125 -2.117188 1.28125 -1.691406 1.4375 -1.328125 C 1.59375 -0.972656 1.828125 -0.703125 2.140625 -0.515625 C 2.460938 -0.328125 2.828125 -0.234375 3.234375 -0.234375 C 3.578125 -0.234375 3.882813 -0.304688 4.15625 -0.453125 C 4.425781 -0.597656 4.722656 -0.894531 5.046875 -1.34375 L 5.171875 -1.265625 C 4.898438 -0.785156 4.582031 -0.429688 4.21875 -0.203125 C 3.851563 0.015625 3.421875 0.125 2.921875 0.125 C 2.023438 0.125 1.332031 -0.207031 0.84375 -0.875 C 0.476563 -1.363281 0.296875 -1.945313 0.296875 -2.625 C 0.296875 -3.164063 0.414063 -3.660156 0.65625 -4.109375 C 0.894531 -4.554688 1.226563 -4.90625 1.65625 -5.15625 C 2.082031 -5.40625 2.546875 -5.53125 3.046875 -5.53125 C 3.441406 -5.53125 3.828125 -5.4375 4.203125 -5.25 C 4.316406 -5.1875 4.394531 -5.15625 4.4375 -5.15625 C 4.507813 -5.15625 4.570313 -5.179688 4.625 -5.234375 C 4.695313 -5.304688 4.75 -5.40625 4.78125 -5.53125 Z M 4.921875 -5.53125 "
           id="path27" />
      </g>
      <g
         id="glyph-0-10">
        <path
           d="M 2.984375 -5.53125 C 3.691406 -5.53125 4.300781 -5.265625 4.8125 -4.734375 C 5.332031 -4.203125 5.59375 -3.535156 5.59375 -2.734375 C 5.59375 -1.910156 5.332031 -1.226563 4.8125 -0.6875 C 4.289063 -0.144531 3.660156 0.125 2.921875 0.125 C 2.179688 0.125 1.554688 -0.140625 1.046875 -0.671875 C 0.535156 -1.203125 0.28125 -1.882813 0.28125 -2.71875 C 0.28125 -3.582031 0.578125 -4.285156 1.171875 -4.828125 C 1.671875 -5.296875 2.273438 -5.53125 2.984375 -5.53125 Z M 2.90625 -5.25 C 2.425781 -5.25 2.039063 -5.066406 1.75 -4.703125 C 1.382813 -4.253906 1.203125 -3.597656 1.203125 -2.734375 C 1.203125 -1.859375 1.390625 -1.179688 1.765625 -0.703125 C 2.054688 -0.335938 2.441406 -0.15625 2.921875 -0.15625 C 3.421875 -0.15625 3.835938 -0.351563 4.171875 -0.75 C 4.503906 -1.144531 4.671875 -1.769531 4.671875 -2.625 C 4.671875 -3.550781 4.488281 -4.242188 4.125 -4.703125 C 3.832031 -5.066406 3.425781 -5.25 2.90625 -5.25 Z M 2.90625 -5.25 "
           id="path30" />
      </g>
      <g
         id="glyph-0-11">
        <path
           d="M 1.671875 -2.53125 L 1.671875 -0.953125 C 1.671875 -0.617188 1.707031 -0.410156 1.78125 -0.328125 C 1.882813 -0.203125 2.039063 -0.140625 2.25 -0.140625 L 2.453125 -0.140625 L 2.453125 0 L 0.140625 0 L 0.140625 -0.140625 L 0.34375 -0.140625 C 0.570313 -0.140625 0.734375 -0.21875 0.828125 -0.375 C 0.878906 -0.457031 0.90625 -0.648438 0.90625 -0.953125 L 0.90625 -4.453125 C 0.90625 -4.796875 0.867188 -5.007813 0.796875 -5.09375 C 0.691406 -5.207031 0.539063 -5.265625 0.34375 -5.265625 L 0.140625 -5.265625 L 0.140625 -5.40625 L 2.125 -5.40625 C 2.601563 -5.40625 2.984375 -5.351563 3.265625 -5.25 C 3.546875 -5.15625 3.78125 -4.988281 3.96875 -4.75 C 4.15625 -4.519531 4.25 -4.242188 4.25 -3.921875 C 4.25 -3.472656 4.101563 -3.109375 3.8125 -2.828125 C 3.53125 -2.554688 3.117188 -2.421875 2.578125 -2.421875 C 2.453125 -2.421875 2.3125 -2.429688 2.15625 -2.453125 C 2.007813 -2.472656 1.847656 -2.5 1.671875 -2.53125 Z M 1.671875 -2.765625 C 1.816406 -2.734375 1.941406 -2.710938 2.046875 -2.703125 C 2.160156 -2.691406 2.253906 -2.6875 2.328125 -2.6875 C 2.609375 -2.6875 2.847656 -2.789063 3.046875 -3 C 3.242188 -3.21875 3.34375 -3.492188 3.34375 -3.828125 C 3.34375 -4.066406 3.296875 -4.285156 3.203125 -4.484375 C 3.109375 -4.679688 2.972656 -4.832031 2.796875 -4.9375 C 2.617188 -5.039063 2.421875 -5.09375 2.203125 -5.09375 C 2.066406 -5.09375 1.890625 -5.066406 1.671875 -5.015625 Z M 1.671875 -2.765625 "
           id="path33" />
      </g>
      <g
         id="glyph-0-12">
        <path
           d="M 0.953125 -4.875 L 2.28125 -5.515625 L 2.40625 -5.515625 L 2.40625 -0.953125 C 2.40625 -0.648438 2.414063 -0.460938 2.4375 -0.390625 C 2.46875 -0.316406 2.519531 -0.257813 2.59375 -0.21875 C 2.675781 -0.175781 2.84375 -0.148438 3.09375 -0.140625 L 3.09375 0 L 1.046875 0 L 1.046875 -0.140625 C 1.304688 -0.148438 1.472656 -0.171875 1.546875 -0.203125 C 1.617188 -0.242188 1.671875 -0.296875 1.703125 -0.359375 C 1.734375 -0.429688 1.75 -0.628906 1.75 -0.953125 L 1.75 -3.875 C 1.75 -4.269531 1.734375 -4.519531 1.703125 -4.625 C 1.691406 -4.71875 1.660156 -4.78125 1.609375 -4.8125 C 1.554688 -4.851563 1.492188 -4.875 1.421875 -4.875 C 1.328125 -4.875 1.191406 -4.832031 1.015625 -4.75 Z M 0.953125 -4.875 "
           id="path36" />
      </g>
      <g
         id="glyph-0-13">
        <path
           d="M -0.015625 -3.296875 L 1.125 -3.75 L 1.265625 -3.75 L 1.265625 -2.890625 C 1.453125 -3.210938 1.640625 -3.4375 1.828125 -3.5625 C 2.023438 -3.695313 2.226563 -3.765625 2.4375 -3.765625 C 2.800781 -3.765625 3.109375 -3.617188 3.359375 -3.328125 C 3.660156 -2.984375 3.8125 -2.523438 3.8125 -1.953125 C 3.8125 -1.328125 3.628906 -0.804688 3.265625 -0.390625 C 2.960938 -0.0546875 2.585938 0.109375 2.140625 0.109375 C 1.941406 0.109375 1.769531 0.0820313 1.625 0.03125 C 1.519531 -0.0078125 1.398438 -0.09375 1.265625 -0.21875 L 1.265625 0.90625 C 1.265625 1.15625 1.28125 1.3125 1.3125 1.375 C 1.34375 1.445313 1.394531 1.5 1.46875 1.53125 C 1.550781 1.570313 1.691406 1.59375 1.890625 1.59375 L 1.890625 1.75 L -0.03125 1.75 L -0.03125 1.59375 L 0.078125 1.59375 C 0.222656 1.601563 0.347656 1.578125 0.453125 1.515625 C 0.492188 1.484375 0.53125 1.4375 0.5625 1.375 C 0.59375 1.3125 0.609375 1.144531 0.609375 0.875 L 0.609375 -2.578125 C 0.609375 -2.816406 0.597656 -2.96875 0.578125 -3.03125 C 0.554688 -3.09375 0.519531 -3.140625 0.46875 -3.171875 C 0.425781 -3.203125 0.363281 -3.21875 0.28125 -3.21875 C 0.21875 -3.21875 0.140625 -3.203125 0.046875 -3.171875 Z M 1.265625 -2.65625 L 1.265625 -1.296875 C 1.265625 -0.992188 1.28125 -0.796875 1.3125 -0.703125 C 1.34375 -0.554688 1.429688 -0.421875 1.578125 -0.296875 C 1.722656 -0.179688 1.90625 -0.125 2.125 -0.125 C 2.394531 -0.125 2.609375 -0.226563 2.765625 -0.4375 C 2.984375 -0.707031 3.09375 -1.085938 3.09375 -1.578125 C 3.09375 -2.140625 2.972656 -2.570313 2.734375 -2.875 C 2.554688 -3.082031 2.351563 -3.1875 2.125 -3.1875 C 2 -3.1875 1.875 -3.15625 1.75 -3.09375 C 1.644531 -3.039063 1.484375 -2.894531 1.265625 -2.65625 Z M 1.265625 -2.65625 "
           id="path39" />
      </g>
      <g
         id="glyph-0-14">
        <path
           d="M 1.34375 -2.984375 C 1.601563 -3.253906 1.757813 -3.40625 1.8125 -3.4375 C 1.925781 -3.539063 2.050781 -3.617188 2.1875 -3.671875 C 2.332031 -3.734375 2.472656 -3.765625 2.609375 -3.765625 C 2.835938 -3.765625 3.035156 -3.695313 3.203125 -3.5625 C 3.367188 -3.425781 3.476563 -3.234375 3.53125 -2.984375 C 3.800781 -3.304688 4.03125 -3.515625 4.21875 -3.609375 C 4.414063 -3.710938 4.613281 -3.765625 4.8125 -3.765625 C 5 -3.765625 5.164063 -3.710938 5.3125 -3.609375 C 5.46875 -3.515625 5.59375 -3.351563 5.6875 -3.125 C 5.738281 -2.96875 5.765625 -2.722656 5.765625 -2.390625 L 5.765625 -0.828125 C 5.765625 -0.597656 5.785156 -0.441406 5.828125 -0.359375 C 5.847656 -0.296875 5.894531 -0.242188 5.96875 -0.203125 C 6.039063 -0.160156 6.160156 -0.140625 6.328125 -0.140625 L 6.328125 0 L 4.515625 0 L 4.515625 -0.140625 L 4.59375 -0.140625 C 4.75 -0.140625 4.867188 -0.171875 4.953125 -0.234375 C 5.015625 -0.273438 5.0625 -0.34375 5.09375 -0.4375 C 5.101563 -0.476563 5.109375 -0.609375 5.109375 -0.828125 L 5.109375 -2.390625 C 5.109375 -2.691406 5.070313 -2.90625 5 -3.03125 C 4.894531 -3.195313 4.726563 -3.28125 4.5 -3.28125 C 4.363281 -3.28125 4.222656 -3.242188 4.078125 -3.171875 C 3.929688 -3.109375 3.757813 -2.976563 3.5625 -2.78125 L 3.546875 -2.734375 L 3.5625 -2.5625 L 3.5625 -0.828125 C 3.5625 -0.578125 3.570313 -0.421875 3.59375 -0.359375 C 3.625 -0.296875 3.675781 -0.242188 3.75 -0.203125 C 3.832031 -0.160156 3.96875 -0.140625 4.15625 -0.140625 L 4.15625 0 L 2.3125 0 L 2.3125 -0.140625 C 2.507813 -0.140625 2.644531 -0.160156 2.71875 -0.203125 C 2.800781 -0.253906 2.851563 -0.332031 2.875 -0.4375 C 2.894531 -0.476563 2.90625 -0.609375 2.90625 -0.828125 L 2.90625 -2.390625 C 2.90625 -2.691406 2.859375 -2.910156 2.765625 -3.046875 C 2.648438 -3.210938 2.488281 -3.296875 2.28125 -3.296875 C 2.132813 -3.296875 1.988281 -3.257813 1.84375 -3.1875 C 1.625 -3.0625 1.457031 -2.925781 1.34375 -2.78125 L 1.34375 -0.828125 C 1.34375 -0.585938 1.359375 -0.429688 1.390625 -0.359375 C 1.421875 -0.285156 1.46875 -0.226563 1.53125 -0.1875 C 1.601563 -0.15625 1.738281 -0.140625 1.9375 -0.140625 L 1.9375 0 L 0.125 0 L 0.125 -0.140625 C 0.289063 -0.140625 0.40625 -0.15625 0.46875 -0.1875 C 0.539063 -0.226563 0.59375 -0.285156 0.625 -0.359375 C 0.664063 -0.441406 0.6875 -0.597656 0.6875 -0.828125 L 0.6875 -2.21875 C 0.6875 -2.625 0.671875 -2.882813 0.640625 -3 C 0.628906 -3.082031 0.601563 -3.140625 0.5625 -3.171875 C 0.519531 -3.210938 0.460938 -3.234375 0.390625 -3.234375 C 0.316406 -3.234375 0.226563 -3.210938 0.125 -3.171875 L 0.0625 -3.3125 L 1.171875 -3.765625 L 1.34375 -3.765625 Z M 1.34375 -2.984375 "
           id="path42" />
      </g>
      <g
         id="glyph-0-15">
        <path
           d="M 0.0625 -3.65625 L 1.78125 -3.65625 L 1.78125 -3.5 L 1.671875 -3.5 C 1.566406 -3.5 1.488281 -3.472656 1.4375 -3.421875 C 1.382813 -3.378906 1.359375 -3.316406 1.359375 -3.234375 C 1.359375 -3.140625 1.382813 -3.023438 1.4375 -2.890625 L 2.296875 -0.875 L 3.140625 -2.96875 C 3.203125 -3.125 3.234375 -3.238281 3.234375 -3.3125 C 3.234375 -3.351563 3.222656 -3.382813 3.203125 -3.40625 C 3.171875 -3.445313 3.132813 -3.472656 3.09375 -3.484375 C 3.050781 -3.492188 2.957031 -3.5 2.8125 -3.5 L 2.8125 -3.65625 L 4.015625 -3.65625 L 4.015625 -3.5 C 3.867188 -3.488281 3.769531 -3.460938 3.71875 -3.421875 C 3.625 -3.335938 3.539063 -3.207031 3.46875 -3.03125 L 2.171875 0.109375 L 2.015625 0.109375 L 0.703125 -2.96875 C 0.648438 -3.113281 0.59375 -3.21875 0.53125 -3.28125 C 0.476563 -3.34375 0.410156 -3.394531 0.328125 -3.4375 C 0.285156 -3.457031 0.195313 -3.476563 0.0625 -3.5 Z M 0.0625 -3.65625 "
           id="path45" />
      </g>
      <g
         id="glyph-0-16">
        <path
           d="M 0.421875 -4.375 C 0.566406 -4.738281 0.757813 -5.019531 1 -5.21875 C 1.238281 -5.414063 1.53125 -5.515625 1.875 -5.515625 C 2.3125 -5.515625 2.644531 -5.375 2.875 -5.09375 C 3.050781 -4.882813 3.140625 -4.660156 3.140625 -4.421875 C 3.140625 -4.023438 2.890625 -3.617188 2.390625 -3.203125 C 2.722656 -3.078125 2.972656 -2.890625 3.140625 -2.640625 C 3.316406 -2.398438 3.40625 -2.117188 3.40625 -1.796875 C 3.40625 -1.328125 3.253906 -0.921875 2.953125 -0.578125 C 2.566406 -0.128906 2.003906 0.09375 1.265625 0.09375 C 0.898438 0.09375 0.648438 0.0507813 0.515625 -0.03125 C 0.390625 -0.125 0.328125 -0.222656 0.328125 -0.328125 C 0.328125 -0.410156 0.359375 -0.476563 0.421875 -0.53125 C 0.484375 -0.59375 0.5625 -0.625 0.65625 -0.625 C 0.71875 -0.625 0.785156 -0.613281 0.859375 -0.59375 C 0.898438 -0.582031 1 -0.53125 1.15625 -0.4375 C 1.320313 -0.351563 1.4375 -0.304688 1.5 -0.296875 C 1.59375 -0.265625 1.695313 -0.25 1.8125 -0.25 C 2.082031 -0.25 2.316406 -0.351563 2.515625 -0.5625 C 2.710938 -0.769531 2.8125 -1.019531 2.8125 -1.3125 C 2.8125 -1.519531 2.765625 -1.722656 2.671875 -1.921875 C 2.609375 -2.078125 2.535156 -2.191406 2.453125 -2.265625 C 2.335938 -2.367188 2.179688 -2.460938 1.984375 -2.546875 C 1.785156 -2.640625 1.582031 -2.6875 1.375 -2.6875 L 1.234375 -2.6875 L 1.234375 -2.8125 C 1.453125 -2.832031 1.664063 -2.90625 1.875 -3.03125 C 2.082031 -3.15625 2.234375 -3.304688 2.328125 -3.484375 C 2.429688 -3.660156 2.484375 -3.851563 2.484375 -4.0625 C 2.484375 -4.332031 2.394531 -4.550781 2.21875 -4.71875 C 2.050781 -4.894531 1.835938 -4.984375 1.578125 -4.984375 C 1.171875 -4.984375 0.828125 -4.757813 0.546875 -4.3125 Z M 0.421875 -4.375 "
           id="path48" />
      </g>
      <g
         id="glyph-0-17">
        <path
           d="M 1.6875 -3.375 L 1.6875 -0.96875 C 1.6875 -0.625 1.722656 -0.40625 1.796875 -0.3125 C 1.890625 -0.195313 2.019531 -0.140625 2.1875 -0.140625 L 2.515625 -0.140625 L 2.515625 0 L 0.34375 0 L 0.34375 -0.140625 L 0.5 -0.140625 C 0.601563 -0.140625 0.695313 -0.164063 0.78125 -0.21875 C 0.875 -0.269531 0.9375 -0.34375 0.96875 -0.4375 C 1.007813 -0.53125 1.03125 -0.707031 1.03125 -0.96875 L 1.03125 -3.375 L 0.3125 -3.375 L 0.3125 -3.65625 L 1.03125 -3.65625 L 1.03125 -3.890625 C 1.03125 -4.253906 1.085938 -4.5625 1.203125 -4.8125 C 1.316406 -5.070313 1.492188 -5.28125 1.734375 -5.4375 C 1.972656 -5.59375 2.242188 -5.671875 2.546875 -5.671875 C 2.828125 -5.671875 3.082031 -5.578125 3.3125 -5.390625 C 3.46875 -5.273438 3.546875 -5.140625 3.546875 -4.984375 C 3.546875 -4.910156 3.507813 -4.835938 3.4375 -4.765625 C 3.375 -4.691406 3.300781 -4.65625 3.21875 -4.65625 C 3.15625 -4.65625 3.085938 -4.675781 3.015625 -4.71875 C 2.953125 -4.769531 2.875 -4.867188 2.78125 -5.015625 C 2.6875 -5.160156 2.597656 -5.253906 2.515625 -5.296875 C 2.429688 -5.347656 2.335938 -5.375 2.234375 -5.375 C 2.109375 -5.375 2.003906 -5.34375 1.921875 -5.28125 C 1.835938 -5.21875 1.773438 -5.113281 1.734375 -4.96875 C 1.703125 -4.832031 1.6875 -4.484375 1.6875 -3.921875 L 1.6875 -3.65625 L 2.625 -3.65625 L 2.625 -3.375 Z M 1.6875 -3.375 "
           id="path51" />
      </g>
      <g
         id="glyph-0-18">
        <path
           d="M 3.75 -1.046875 L 3.375 0 L 0.171875 0 L 0.171875 -0.140625 C 1.109375 -1.003906 1.769531 -1.707031 2.15625 -2.25 C 2.539063 -2.789063 2.734375 -3.285156 2.734375 -3.734375 C 2.734375 -4.078125 2.628906 -4.359375 2.421875 -4.578125 C 2.210938 -4.796875 1.957031 -4.90625 1.65625 -4.90625 C 1.394531 -4.90625 1.15625 -4.828125 0.9375 -4.671875 C 0.726563 -4.515625 0.578125 -4.289063 0.484375 -4 L 0.328125 -4 C 0.398438 -4.488281 0.570313 -4.863281 0.84375 -5.125 C 1.113281 -5.382813 1.457031 -5.515625 1.875 -5.515625 C 2.3125 -5.515625 2.675781 -5.375 2.96875 -5.09375 C 3.269531 -4.8125 3.421875 -4.484375 3.421875 -4.109375 C 3.421875 -3.828125 3.351563 -3.550781 3.21875 -3.28125 C 3.019531 -2.851563 2.703125 -2.394531 2.265625 -1.90625 C 1.597656 -1.1875 1.1875 -0.753906 1.03125 -0.609375 L 2.4375 -0.609375 C 2.726563 -0.609375 2.929688 -0.617188 3.046875 -0.640625 C 3.160156 -0.660156 3.265625 -0.703125 3.359375 -0.765625 C 3.453125 -0.828125 3.53125 -0.921875 3.59375 -1.046875 Z M 3.75 -1.046875 "
           id="path54" />
      </g>
      <g
         id="glyph-0-19">
        <path
           d="M 3.796875 -2 L 3.796875 -1.421875 L 3.078125 -1.421875 L 3.078125 0 L 2.421875 0 L 2.421875 -1.421875 L 0.125 -1.421875 L 0.125 -1.9375 L 2.640625 -5.515625 L 3.078125 -5.515625 L 3.078125 -2 Z M 2.421875 -2 L 2.421875 -4.6875 L 0.515625 -2 Z M 2.421875 -2 "
           id="path57" />
      </g>
      <g
         id="glyph-0-20">
        <path
           d="M 0.828125 -5.40625 L 3.71875 -5.40625 L 3.71875 -5.265625 L 1.921875 0.109375 L 1.46875 0.109375 L 3.09375 -4.765625 L 1.59375 -4.765625 C 1.300781 -4.765625 1.085938 -4.726563 0.953125 -4.65625 C 0.734375 -4.53125 0.554688 -4.34375 0.421875 -4.09375 L 0.296875 -4.125 Z M 0.828125 -5.40625 "
           id="path60" />
      </g>
      <g
         id="glyph-0-21">
        <path
           d="M 1.1875 -5.671875 C 1.300781 -5.671875 1.394531 -5.628906 1.46875 -5.546875 C 1.550781 -5.472656 1.59375 -5.378906 1.59375 -5.265625 C 1.59375 -5.160156 1.550781 -5.066406 1.46875 -4.984375 C 1.394531 -4.898438 1.300781 -4.859375 1.1875 -4.859375 C 1.070313 -4.859375 0.972656 -4.898438 0.890625 -4.984375 C 0.816406 -5.066406 0.78125 -5.160156 0.78125 -5.265625 C 0.78125 -5.378906 0.816406 -5.472656 0.890625 -5.546875 C 0.972656 -5.628906 1.070313 -5.671875 1.1875 -5.671875 Z M 1.515625 -3.765625 L 1.515625 -0.828125 C 1.515625 -0.597656 1.53125 -0.441406 1.5625 -0.359375 C 1.59375 -0.285156 1.640625 -0.226563 1.703125 -0.1875 C 1.773438 -0.15625 1.898438 -0.140625 2.078125 -0.140625 L 2.078125 0 L 0.296875 0 L 0.296875 -0.140625 C 0.472656 -0.140625 0.59375 -0.15625 0.65625 -0.1875 C 0.71875 -0.226563 0.765625 -0.285156 0.796875 -0.359375 C 0.835938 -0.441406 0.859375 -0.597656 0.859375 -0.828125 L 0.859375 -2.234375 C 0.859375 -2.628906 0.84375 -2.882813 0.8125 -3 C 0.800781 -3.082031 0.773438 -3.140625 0.734375 -3.171875 C 0.691406 -3.210938 0.632813 -3.234375 0.5625 -3.234375 C 0.488281 -3.234375 0.398438 -3.210938 0.296875 -3.171875 L 0.234375 -3.3125 L 1.34375 -3.765625 Z M 1.515625 -3.765625 "
           id="path63" />
      </g>
      <g
         id="glyph-0-22">
        <path
           d="M 0.140625 -3.515625 L 4.453125 -3.515625 L 4.453125 -3.203125 L 0.140625 -3.203125 Z M 0.140625 -2.21875 L 4.453125 -2.21875 L 4.453125 -1.890625 L 0.140625 -1.890625 Z M 0.140625 -2.21875 "
           id="path66" />
      </g>
      <g
         id="glyph-0-23">
        <path
           d="M 1.8125 -1.28125 L 1.640625 -1.28125 C 1.660156 -1.613281 1.703125 -1.890625 1.765625 -2.109375 C 1.835938 -2.328125 1.972656 -2.632813 2.171875 -3.03125 C 2.335938 -3.320313 2.441406 -3.546875 2.484375 -3.703125 C 2.535156 -3.867188 2.5625 -4.035156 2.5625 -4.203125 C 2.5625 -4.546875 2.46875 -4.816406 2.28125 -5.015625 C 2.101563 -5.210938 1.882813 -5.3125 1.625 -5.3125 C 1.394531 -5.3125 1.210938 -5.253906 1.078125 -5.140625 C 0.953125 -5.035156 0.890625 -4.921875 0.890625 -4.796875 C 0.890625 -4.691406 0.925781 -4.566406 1 -4.421875 C 1.082031 -4.285156 1.125 -4.179688 1.125 -4.109375 C 1.125 -4.003906 1.09375 -3.921875 1.03125 -3.859375 C 0.96875 -3.796875 0.894531 -3.765625 0.8125 -3.765625 C 0.695313 -3.765625 0.59375 -3.816406 0.5 -3.921875 C 0.40625 -4.035156 0.359375 -4.191406 0.359375 -4.390625 C 0.359375 -4.691406 0.488281 -4.957031 0.75 -5.1875 C 1.007813 -5.414063 1.359375 -5.53125 1.796875 -5.53125 C 2.347656 -5.53125 2.753906 -5.375 3.015625 -5.0625 C 3.203125 -4.820313 3.296875 -4.5625 3.296875 -4.28125 C 3.296875 -4.082031 3.253906 -3.878906 3.171875 -3.671875 C 3.085938 -3.472656 2.921875 -3.234375 2.671875 -2.953125 C 2.285156 -2.515625 2.050781 -2.203125 1.96875 -2.015625 C 1.882813 -1.835938 1.832031 -1.59375 1.8125 -1.28125 Z M 1.75 -0.78125 C 1.875 -0.78125 1.976563 -0.734375 2.0625 -0.640625 C 2.15625 -0.554688 2.203125 -0.453125 2.203125 -0.328125 C 2.203125 -0.210938 2.15625 -0.109375 2.0625 -0.015625 C 1.976563 0.0664063 1.875 0.109375 1.75 0.109375 C 1.632813 0.109375 1.53125 0.0664063 1.4375 -0.015625 C 1.351563 -0.109375 1.3125 -0.210938 1.3125 -0.328125 C 1.3125 -0.453125 1.351563 -0.554688 1.4375 -0.640625 C 1.53125 -0.734375 1.632813 -0.78125 1.75 -0.78125 Z M 1.75 -0.78125 "
           id="path69" />
      </g>
      <g
         id="glyph-0-24">
        <path
           d="M 5.546875 -5.53125 L 1.609375 0.21875 L 1.25 0.21875 L 5.203125 -5.53125 Z M 1.453125 -5.53125 C 1.804688 -5.53125 2.082031 -5.378906 2.28125 -5.078125 C 2.476563 -4.785156 2.578125 -4.445313 2.578125 -4.0625 C 2.578125 -3.601563 2.46875 -3.242188 2.25 -2.984375 C 2.03125 -2.734375 1.757813 -2.609375 1.4375 -2.609375 C 1.226563 -2.609375 1.035156 -2.664063 0.859375 -2.78125 C 0.691406 -2.894531 0.550781 -3.066406 0.4375 -3.296875 C 0.332031 -3.523438 0.28125 -3.78125 0.28125 -4.0625 C 0.28125 -4.34375 0.332031 -4.597656 0.4375 -4.828125 C 0.550781 -5.066406 0.695313 -5.242188 0.875 -5.359375 C 1.0625 -5.472656 1.253906 -5.53125 1.453125 -5.53125 Z M 1.4375 -5.3125 C 1.300781 -5.3125 1.179688 -5.226563 1.078125 -5.0625 C 0.972656 -4.90625 0.921875 -4.570313 0.921875 -4.0625 C 0.921875 -3.695313 0.953125 -3.414063 1.015625 -3.21875 C 1.054688 -3.070313 1.125 -2.957031 1.21875 -2.875 C 1.28125 -2.832031 1.347656 -2.8125 1.421875 -2.8125 C 1.554688 -2.8125 1.664063 -2.878906 1.75 -3.015625 C 1.882813 -3.222656 1.953125 -3.566406 1.953125 -4.046875 C 1.953125 -4.546875 1.890625 -4.898438 1.765625 -5.109375 C 1.671875 -5.242188 1.5625 -5.3125 1.4375 -5.3125 Z M 5.375 -2.6875 C 5.5625 -2.6875 5.75 -2.625 5.9375 -2.5 C 6.125 -2.382813 6.269531 -2.210938 6.375 -1.984375 C 6.476563 -1.753906 6.53125 -1.503906 6.53125 -1.234375 C 6.53125 -0.753906 6.414063 -0.390625 6.1875 -0.140625 C 5.957031 0.0976563 5.6875 0.21875 5.375 0.21875 C 5.1875 0.21875 5 0.15625 4.8125 0.03125 C 4.632813 -0.0820313 4.492188 -0.25 4.390625 -0.46875 C 4.285156 -0.6875 4.234375 -0.941406 4.234375 -1.234375 C 4.234375 -1.503906 4.285156 -1.753906 4.390625 -1.984375 C 4.492188 -2.222656 4.632813 -2.398438 4.8125 -2.515625 C 5 -2.628906 5.1875 -2.6875 5.375 -2.6875 Z M 5.375 -2.46875 C 5.25 -2.46875 5.140625 -2.398438 5.046875 -2.265625 C 4.921875 -2.078125 4.859375 -1.722656 4.859375 -1.203125 C 4.859375 -0.722656 4.921875 -0.390625 5.046875 -0.203125 C 5.140625 -0.0664063 5.25 0 5.375 0 C 5.5 0 5.609375 -0.0703125 5.703125 -0.21875 C 5.828125 -0.414063 5.890625 -0.75 5.890625 -1.21875 C 5.890625 -1.71875 5.828125 -2.066406 5.703125 -2.265625 C 5.609375 -2.398438 5.5 -2.46875 5.375 -2.46875 Z M 5.375 -2.46875 "
           id="path72" />
      </g>
      <g
         id="glyph-0-25">
        <path
           d="M 1.328125 -2.984375 C 1.753906 -3.503906 2.160156 -3.765625 2.546875 -3.765625 C 2.742188 -3.765625 2.914063 -3.710938 3.0625 -3.609375 C 3.207031 -3.515625 3.320313 -3.351563 3.40625 -3.125 C 3.457031 -2.957031 3.484375 -2.710938 3.484375 -2.390625 L 3.484375 -0.828125 C 3.484375 -0.597656 3.503906 -0.441406 3.546875 -0.359375 C 3.578125 -0.285156 3.625 -0.226563 3.6875 -0.1875 C 3.75 -0.15625 3.867188 -0.140625 4.046875 -0.140625 L 4.046875 0 L 2.25 0 L 2.25 -0.140625 L 2.3125 -0.140625 C 2.488281 -0.140625 2.609375 -0.164063 2.671875 -0.21875 C 2.742188 -0.269531 2.789063 -0.347656 2.8125 -0.453125 C 2.820313 -0.492188 2.828125 -0.617188 2.828125 -0.828125 L 2.828125 -2.328125 C 2.828125 -2.660156 2.785156 -2.898438 2.703125 -3.046875 C 2.617188 -3.191406 2.472656 -3.265625 2.265625 -3.265625 C 1.953125 -3.265625 1.640625 -3.09375 1.328125 -2.75 L 1.328125 -0.828125 C 1.328125 -0.578125 1.335938 -0.421875 1.359375 -0.359375 C 1.398438 -0.285156 1.453125 -0.226563 1.515625 -0.1875 C 1.578125 -0.15625 1.710938 -0.140625 1.921875 -0.140625 L 1.921875 0 L 0.109375 0 L 0.109375 -0.140625 L 0.1875 -0.140625 C 0.375 -0.140625 0.5 -0.1875 0.5625 -0.28125 C 0.625 -0.375 0.65625 -0.554688 0.65625 -0.828125 L 0.65625 -2.1875 C 0.65625 -2.625 0.644531 -2.890625 0.625 -2.984375 C 0.613281 -3.078125 0.585938 -3.140625 0.546875 -3.171875 C 0.503906 -3.210938 0.445313 -3.234375 0.375 -3.234375 C 0.300781 -3.234375 0.210938 -3.210938 0.109375 -3.171875 L 0.046875 -3.3125 L 1.15625 -3.765625 L 1.328125 -3.765625 Z M 1.328125 -2.984375 "
           id="path75" />
      </g>
    </g>
  </defs>
  <path
     fill-rule="nonzero"
     fill="rgb(0%, 0%, 0%)"
     fill-opacity="1"
     d="M 74.203125 209.871094 L 74.203125 205.375 L 75.703125 205.375 L 75.703125 209.871094 M 74.203125 200.878906 L 74.203125 196.382813 L 75.703125 196.382813 L 75.703125 200.878906 M 74.203125 191.882813 L 74.203125 187.386719 L 75.703125 187.386719 L 75.703125 191.882813 M 74.203125 182.890625 L 74.203125 178.390625 L 75.703125 178.390625 L 75.703125 182.890625 M 74.203125 173.894531 L 74.203125 169.398438 L 75.703125 169.398438 L 75.703125 173.894531 M 74.203125 164.898438 L 74.203125 160.402344 L 75.703125 160.402344 L 75.703125 164.898438 M 74.203125 155.90625 L 74.203125 151.410156 L 75.703125 151.410156 L 75.703125 155.90625 M 74.203125 146.910156 L 74.203125 142.414063 L 75.703125 142.414063 L 75.703125 146.910156 M 74.203125 137.917969 L 74.203125 133.417969 L 75.703125 133.417969 L 75.703125 137.917969 M 74.203125 128.921875 L 74.203125 124.425781 L 75.703125 124.425781 L 75.703125 128.921875 M 74.203125 119.925781 L 74.203125 115.429688 L 75.703125 115.429688 L 75.703125 119.925781 M 74.203125 110.933594 L 74.203125 106.4375 L 75.703125 106.4375 L 75.703125 110.933594 M 74.203125 101.9375 L 74.203125 97.441406 L 75.703125 97.441406 L 75.703125 101.9375 M 74.203125 92.945313 L 74.203125 88.445313 L 75.703125 88.445313 L 75.703125 92.945313 M 74.203125 83.949219 L 74.203125 79.453125 L 75.703125 79.453125 L 75.703125 83.949219 M 74.203125 74.953125 L 74.203125 70.457031 L 75.703125 70.457031 L 75.703125 74.953125 M 74.203125 65.960938 L 74.203125 61.460938 L 75.703125 61.460938 L 75.703125 65.960938 M 74.203125 56.964844 L 74.203125 52.46875 L 75.703125 52.46875 L 75.703125 56.964844 M 74.203125 47.972656 L 74.203125 43.472656 L 75.703125 43.472656 L 75.703125 47.972656 M 74.203125 38.976563 L 74.203125 34.480469 L 75.703125 34.480469 L 75.703125 38.976563 M 74.203125 29.980469 L 74.203125 25.484375 L 75.703125 25.484375 L 75.703125 29.980469 "
     id="path82" />
  <path
     fill="none"
     stroke-width="2"
     stroke-linecap="butt"
     stroke-linejoin="miter"
     stroke="rgb(0%, 0%, 0%)"
     stroke-opacity="1"
     stroke-miterlimit="10"
     d="M 99.998005 140.001377 L 500.00045 140.001377 "
     transform="matrix(0.749546, 0, 0, 0.749546, 0, 0)"
     id="path84" />
  <path
     fill="none"
     stroke-width="2"
     stroke-linecap="butt"
     stroke-linejoin="miter"
     stroke="rgb(100%, 9.408569%, 9.408569%)"
     stroke-opacity="1"
     stroke-miterlimit="10"
     d="M 99.998005 140.001377 L 99.998005 191.761862 "
     transform="matrix(0.749546, 0, 0, 0.749546, 0, 0)"
     id="path86" />
  <path
     fill-rule="nonzero"
     fill="rgb(100%, 9.408569%, 9.408569%)"
     fill-opacity="1"
     stroke-width="2"
     stroke-linecap="butt"
     stroke-linejoin="miter"
     stroke="rgb(100%, 9.408569%, 9.408569%)"
     stroke-opacity="1"
     stroke-miterlimit="10"
     d="M 99.998005 197.760283 L 96.000795 189.760651 L 99.998005 191.761862 L 104.000427 189.760651 Z M 99.998005 197.760283 "
     transform="matrix(0.749546, 0, 0, 0.749546, 0, 0)"
     id="path88" />
  <path
     fill="none"
     stroke-width="2"
     stroke-linecap="butt"
     stroke-linejoin="miter"
     stroke="rgb(10.198975%, 100%, 12.159729%)"
     stroke-opacity="1"
     stroke-miterlimit="10"
     d="M 500.00045 140.001377 L 500.438215 78.240049 "
     transform="matrix(0.749546, 0, 0, 0.749546, 0, 0)"
     id="path90" />
  <path
     fill-rule="nonzero"
     fill="rgb(10.198975%, 100%, 12.159729%)"
     fill-opacity="1"
     stroke-width="2"
     stroke-linecap="butt"
     stroke-linejoin="miter"
     stroke="rgb(10.198975%, 100%, 12.159729%)"
     stroke-opacity="1"
     stroke-miterlimit="10"
     d="M 500.479907 72.241628 L 504.430213 80.262106 L 500.438215 78.240049 L 496.430581 80.209991 Z M 500.479907 72.241628 "
     transform="matrix(0.749546, 0, 0, 0.749546, 0, 0)"
     id="path92" />
  <g
     fill="#000000"
     fill-opacity="1"
     id="g96">
    <use
       xlink:href="#glyph-0-1"
       x="12.168414"
       y="145.41196"
       id="use94" />
  </g>
  <g
     fill="#000000"
     fill-opacity="1"
     id="g100">
    <use
       xlink:href="#glyph-0-2"
       x="16.253439"
       y="145.41196"
       id="use98" />
  </g>
  <g
     fill="#000000"
     fill-opacity="1"
     id="g104">
    <use
       xlink:href="#glyph-0-3"
       x="20.338463"
       y="145.41196"
       id="use102" />
  </g>
  <g
     fill="#000000"
     fill-opacity="1"
     id="g108">
    <use
       xlink:href="#glyph-0-4"
       x="22.38097"
       y="145.41196"
       id="use106" />
  </g>
  <g
     fill="#000000"
     fill-opacity="1"
     id="g112">
    <use
       xlink:href="#glyph-0-4"
       x="26.465994"
       y="145.41196"
       id="use110" />
  </g>
  <g
     fill="#000000"
     fill-opacity="1"
     id="g116">
    <use
       xlink:href="#glyph-0-5"
       x="30.551018"
       y="145.41196"
       id="use114" />
  </g>
  <g
     fill="#000000"
     fill-opacity="1"
     id="g120">
    <use
       xlink:href="#glyph-0-6"
       x="34.636044"
       y="145.41196"
       id="use118" />
  </g>
  <g
     fill="#000000"
     fill-opacity="1"
     id="g124">
    <use
       xlink:href="#glyph-0-7"
       x="36.678551"
       y="145.41196"
       id="use122" />
  </g>
  <g
     fill="#000000"
     fill-opacity="1"
     id="g128">
    <use
       xlink:href="#glyph-0-5"
       x="40.763573"
       y="145.41196"
       id="use126" />
  </g>
  <g
     fill="#000000"
     fill-opacity="1"
     id="g132">
    <use
       xlink:href="#glyph-0-8"
       x="44.848598"
       y="145.41196"
       id="use130" />
  </g>
  <g
     fill="#000000"
     fill-opacity="1"
     id="g136">
    <use
       xlink:href="#glyph-0-9"
       x="46.891106"
       y="145.41196"
       id="use134" />
  </g>
  <g
     fill="#000000"
     fill-opacity="1"
     id="g140">
    <use
       xlink:href="#glyph-0-10"
       x="52.340458"
       y="145.41196"
       id="use138" />
  </g>
  <g
     fill="#000000"
     fill-opacity="1"
     id="g144">
    <use
       xlink:href="#glyph-0-11"
       x="58.240604"
       y="145.41196"
       id="use142" />
  </g>
  <g
     fill="#000000"
     fill-opacity="1"
     id="g148">
    <use
       xlink:href="#glyph-0-12"
       x="125.37331"
       y="119.17785"
       id="use146" />
  </g>
  <g
     fill="#000000"
     fill-opacity="1"
     id="g152">
    <use
       xlink:href="#glyph-0-13"
       x="382.49109"
       y="104.18692"
       id="use150" />
  </g>
  <g
     fill="#000000"
     fill-opacity="1"
     id="g156">
    <use
       xlink:href="#glyph-0-14"
       x="386.57611"
       y="104.18692"
       id="use154" />
  </g>
  <g
     fill="#000000"
     fill-opacity="1"
     id="g160">
    <use
       xlink:href="#glyph-0-15"
       x="392.93103"
       y="104.18692"
       id="use158" />
  </g>
  <g
     fill="#000000"
     fill-opacity="1"
     id="g164">
    <use
       xlink:href="#glyph-0-16"
       x="252.79617"
       y="119.17785"
       id="use162" />
  </g>
  <g
     fill="#000000"
     fill-opacity="1"
     id="g168">
    <use
       xlink:href="#glyph-0-13"
       x="71.546524"
       y="14.241378"
       id="use166" />
  </g>
  <g
     fill="#000000"
     fill-opacity="1"
     id="g172">
    <use
       xlink:href="#glyph-0-17"
       x="75.631554"
       y="14.241378"
       id="use170" />
  </g>
  <path
     fill-rule="nonzero"
     fill="rgb(3.919983%, 12.939453%, 70.199585%)"
     fill-opacity="1"
     d="M 75.703125 111.113281 C 75.703125 112.621094 75.792969 114.101563 75.976563 115.542969 L 74.488281 115.730469 C 74.300781 114.222656 74.207031 112.683594 74.203125 111.113281 Z M 76.804688 119.84375 C 77.179688 121.261719 77.648438 122.644531 78.214844 123.992188 L 76.832031 124.570313 C 76.242188 123.160156 75.75 121.710938 75.355469 120.226563 Z M 80.1875 127.910156 C 80.917969 129.148438 81.738281 130.351563 82.648438 131.527344 L 81.464844 132.445313 C 80.515625 131.222656 79.660156 129.964844 78.898438 128.675781 Z M 85.558594 134.863281 C 86.5625 135.890625 87.640625 136.890625 88.792969 137.863281 L 87.828125 139.011719 C 86.636719 138.007813 85.523438 136.972656 84.488281 135.910156 Z M 92.277344 140.558594 C 93.46875 141.40625 94.726563 142.230469 96.050781 143.03125 L 95.273438 144.3125 C 93.917969 143.492188 92.632813 142.648438 91.410156 141.78125 Z M 99.851563 145.183594 C 101.164063 145.875 102.527344 146.546875 103.945313 147.203125 L 103.316406 148.5625 C 101.875 147.898438 100.484375 147.214844 99.152344 146.507813 Z M 107.933594 148.9375 C 109.308594 149.5 110.726563 150.046875 112.191406 150.578125 L 111.675781 151.988281 C 110.195313 151.449219 108.757813 150.894531 107.367188 150.324219 Z M 116.328125 152.003906 C 117.730469 152.460938 119.171875 152.90625 120.644531 153.335938 L 120.226563 154.777344 C 118.734375 154.339844 117.28125 153.890625 115.863281 153.429688 Z M 124.945313 154.53125 C 126.351563 154.902344 127.789063 155.265625 129.257813 155.613281 L 128.910156 157.070313 C 127.433594 156.71875 125.980469 156.355469 124.5625 155.980469 Z M 133.742188 156.628906 C 135.144531 156.929688 136.570313 157.222656 138.019531 157.503906 L 137.730469 158.976563 C 136.273438 158.691406 134.839844 158.398438 133.429688 158.09375 Z M 142.445313 158.324219 C 143.917969 158.585938 145.414063 158.835938 146.933594 159.078125 L 146.699219 160.558594 C 145.167969 160.316406 143.664063 160.0625 142.1875 159.800781 Z M 151.277344 159.738281 C 152.75 159.949219 154.242188 160.152344 155.753906 160.351563 L 155.558594 161.835938 C 154.039063 161.640625 152.542969 161.433594 151.066406 161.222656 Z M 160.273438 160.910156 C 161.714844 161.078125 163.167969 161.238281 164.640625 161.394531 L 164.484375 162.882813 C 163.007813 162.730469 161.546875 162.566406 160.101563 162.398438 Z M 169.117188 161.839844 C 170.628906 161.980469 172.15625 162.117188 173.703125 162.246094 L 173.578125 163.738281 C 172.027344 163.609375 170.492188 163.472656 168.976563 163.332031 Z M 178.074219 162.589844 C 179.542969 162.695313 181.027344 162.800781 182.527344 162.898438 L 182.429688 164.394531 C 180.925781 164.296875 179.4375 164.191406 177.964844 164.082031 Z M 187.070313 163.171875 L 191.582031 163.40625 L 191.503906 164.902344 L 186.992188 164.667969 Z M 195.984375 163.601563 L 200.484375 163.765625 L 200.429688 165.261719 L 195.929688 165.097656 Z M 205.054688 163.902344 L 209.515625 164.003906 L 209.484375 165.503906 L 205.019531 165.398438 Z M 213.945313 164.078125 L 218.449219 164.125 L 218.433594 165.625 L 213.925781 165.578125 Z M 223.023438 164.148438 L 224.753906 164.152344 L 227.644531 164.144531 L 227.644531 165.644531 L 224.75 165.648438 L 223.019531 165.648438 Z M 232.195313 164.113281 L 236.683594 164.054688 L 236.703125 165.550781 L 232.214844 165.613281 Z M 241.089844 163.964844 L 245.609375 163.84375 L 245.652344 165.339844 L 241.132813 165.464844 Z M 250.15625 163.6875 L 254.636719 163.496094 L 254.699219 164.992188 L 250.222656 165.183594 Z M 259.019531 163.273438 C 260.554688 163.191406 262.074219 163.101563 263.578125 163.003906 L 263.671875 164.5 C 262.164063 164.597656 260.640625 164.6875 259.101563 164.773438 Z M 268.097656 162.695313 C 269.589844 162.585938 271.066406 162.46875 272.523438 162.347656 L 272.648438 163.84375 C 271.183594 163.964844 269.707031 164.082031 268.207031 164.191406 Z M 276.949219 161.957031 C 278.488281 161.8125 280.003906 161.660156 281.503906 161.5 L 281.660156 162.992188 C 280.15625 163.148438 278.632813 163.300781 277.089844 163.449219 Z M 285.949219 161 C 287.414063 160.828125 288.859375 160.648438 290.289063 160.460938 L 290.484375 161.945313 C 289.050781 162.132813 287.597656 162.316406 286.125 162.492188 Z M 294.851563 159.828125 C 296.347656 159.605469 297.824219 159.378906 299.28125 159.144531 L 299.523438 160.625 C 298.058594 160.859375 296.574219 161.089844 295.066406 161.308594 Z M 303.585938 158.410156 C 305.117188 158.136719 306.625 157.851563 308.109375 157.558594 L 308.402344 159.03125 C 306.910156 159.324219 305.390625 159.609375 303.851563 159.886719 Z M 312.488281 156.648438 C 313.945313 156.328125 315.378906 156 316.785156 155.660156 L 317.136719 157.117188 C 315.71875 157.460938 314.277344 157.792969 312.808594 158.113281 Z M 321.214844 154.535156 C 322.660156 154.148438 324.074219 153.753906 325.460938 153.34375 L 325.886719 154.78125 C 324.488281 155.195313 323.058594 155.59375 321.601563 155.984375 Z M 329.769531 152 C 331.214844 151.527344 332.625 151.039063 334 150.535156 L 334.515625 151.945313 C 333.125 152.453125 331.699219 152.945313 330.238281 153.425781 Z M 338.128906 148.945313 C 339.554688 148.363281 340.9375 147.765625 342.277344 147.152344 L 342.898438 148.515625 C 341.539063 149.136719 340.140625 149.742188 338.695313 150.332031 Z M 346.222656 145.230469 C 347.59375 144.523438 348.910156 143.792969 350.179688 143.046875 L 350.941406 144.339844 C 349.648438 145.101563 348.304688 145.84375 346.910156 146.5625 Z M 353.894531 140.699219 C 355.160156 139.84375 356.367188 138.960938 357.511719 138.058594 L 358.441406 139.234375 C 357.269531 140.160156 356.03125 141.0625 354.734375 141.941406 Z M 360.867188 135.183594 C 361.964844 134.160156 362.992188 133.109375 363.949219 132.03125 L 365.070313 133.027344 C 364.082031 134.140625 363.019531 135.226563 361.890625 136.28125 Z M 366.714844 128.570313 C 367.578125 127.367188 368.359375 126.132813 369.066406 124.871094 L 370.375 125.597656 C 369.644531 126.914063 368.828125 128.195313 367.9375 129.445313 Z M 370.980469 120.894531 C 371.535156 119.542969 372.007813 118.160156 372.398438 116.742188 L 373.84375 117.140625 C 373.433594 118.617188 372.941406 120.054688 372.367188 121.464844 Z M 373.324219 112.421875 C 373.546875 110.992188 373.691406 109.535156 373.765625 108.050781 L 375.261719 108.121094 C 375.1875 109.660156 375.035156 111.171875 374.804688 112.652344 Z M 373.324219 112.421875 "
     id="path174" />
  <path
     fill-rule="nonzero"
     fill="rgb(3.919983%, 12.939453%, 70.199585%)"
     fill-opacity="1"
     stroke-width="2"
     stroke-linecap="butt"
     stroke-linejoin="miter"
     stroke="rgb(3.919983%, 12.939453%, 70.199585%)"
     stroke-opacity="1"
     stroke-miterlimit="10"
     d="M 99.998005 142.242316 L 104.000427 150.241948 L 99.998005 148.240737 L 96.000795 150.241948 Z M 99.998005 142.242316 "
     transform="matrix(0.749546, 0, 0, 0.749546, 0, 0)"
     id="path176" />
  <g
     fill="#000000"
     fill-opacity="1"
     id="g180">
    <use
       xlink:href="#glyph-0-18"
       x="195.08112"
       y="119.17785"
       id="use178" />
  </g>
  <g
     fill="#000000"
     fill-opacity="1"
     id="g184">
    <use
       xlink:href="#glyph-0-19"
       x="312.75986"
       y="119.17785"
       id="use182" />
  </g>
  <g
     fill="#000000"
     fill-opacity="1"
     id="g188">
    <use
       xlink:href="#glyph-0-1"
       x="365.22809"
       y="119.17785"
       id="use186" />
  </g>
  <g
     fill="#000000"
     fill-opacity="1"
     id="g192">
    <use
       xlink:href="#glyph-0-18"
       x="318.79138"
       y="59.214149"
       id="use190" />
  </g>
  <g
     fill="#000000"
     fill-opacity="1"
     id="g196">
    <use
       xlink:href="#glyph-0-12"
       x="322.8764"
       y="59.214149"
       id="use194" />
  </g>
  <g
     fill="#000000"
     fill-opacity="1"
     id="g200">
    <use
       xlink:href="#glyph-0-2"
       x="326.96143"
       y="59.214149"
       id="use198" />
  </g>
  <g
     fill="#000000"
     fill-opacity="1"
     id="g204">
    <use
       xlink:href="#glyph-0-3"
       x="331.04645"
       y="59.214149"
       id="use202" />
  </g>
  <g
     fill="#000000"
     fill-opacity="1"
     id="g208">
    <use
       xlink:href="#glyph-0-20"
       x="333.08896"
       y="59.214149"
       id="use206" />
  </g>
  <g
     fill="#000000"
     fill-opacity="1"
     id="g212">
    <use
       xlink:href="#glyph-0-5"
       x="337.17398"
       y="59.214149"
       id="use210" />
  </g>
  <g
     fill="#000000"
     fill-opacity="1"
     id="g216">
    <use
       xlink:href="#glyph-0-5"
       x="341.259"
       y="59.214149"
       id="use214" />
  </g>
  <g
     fill="#000000"
     fill-opacity="1"
     id="g220">
    <use
       xlink:href="#glyph-0-8"
       x="345.34402"
       y="59.214149"
       id="use218" />
  </g>
  <g
     fill="#000000"
     fill-opacity="1"
     id="g224">
    <use
       xlink:href="#glyph-0-9"
       x="347.38654"
       y="59.214149"
       id="use222" />
  </g>
  <g
     fill="#000000"
     fill-opacity="1"
     id="g228">
    <use
       xlink:href="#glyph-0-10"
       x="352.83588"
       y="59.214149"
       id="use226" />
  </g>
  <g
     fill="#000000"
     fill-opacity="1"
     id="g232">
    <use
       xlink:href="#glyph-0-11"
       x="358.73602"
       y="59.214149"
       id="use230" />
  </g>
  <g
     fill="#000000"
     fill-opacity="1"
     id="g236">
    <use
       xlink:href="#glyph-0-21"
       x="204.0054"
       y="141.66423"
       id="use234" />
  </g>
  <g
     fill="#000000"
     fill-opacity="1"
     id="g240">
    <use
       xlink:href="#glyph-0-8"
       x="206.2753"
       y="141.66423"
       id="use238" />
  </g>
  <g
     fill="#000000"
     fill-opacity="1"
     id="g246">
    <use
       xlink:href="#glyph-0-22"
       x="208.31781"
       y="141.66423"
       id="use242" />
    <use
       xlink:href="#glyph-0-8"
       x="212.92543"
       y="141.66423"
       id="use244" />
  </g>
  <g
     fill="#000000"
     fill-opacity="1"
     id="g250">
    <use
       xlink:href="#glyph-0-23"
       x="214.96794"
       y="141.66423"
       id="use248" />
  </g>
  <g
     fill="#000000"
     fill-opacity="1"
     id="g254">
    <use
       xlink:href="#glyph-0-24"
       x="218.59419"
       y="141.66423"
       id="use252" />
  </g>
  <g
     fill="#000000"
     fill-opacity="1"
     id="g258">
    <use
       xlink:href="#glyph-0-8"
       x="225.3999"
       y="141.66423"
       id="use256" />
  </g>
  <g
     fill="#000000"
     fill-opacity="1"
     id="g262">
    <use
       xlink:href="#glyph-0-13"
       x="227.44241"
       y="141.66423"
       id="use260" />
  </g>
  <g
     fill="#000000"
     fill-opacity="1"
     id="g266">
    <use
       xlink:href="#glyph-0-14"
       x="231.52744"
       y="141.66423"
       id="use264" />
  </g>
  <g
     fill="#000000"
     fill-opacity="1"
     id="g270">
    <use
       xlink:href="#glyph-0-15"
       x="237.88235"
       y="141.66423"
       id="use268" />
  </g>
  <g
     fill="#000000"
     fill-opacity="1"
     id="g274">
    <use
       xlink:href="#glyph-0-25"
       x="206.64052"
       y="156.65515"
       id="use272" />
  </g>
  <g
     fill="#000000"
     fill-opacity="1"
     id="g278">
    <use
       xlink:href="#glyph-0-8"
       x="210.72554"
       y="156.65515"
       id="use276" />
  </g>
  <g
     fill="#000000"
     fill-opacity="1"
     id="g284">
    <use
       xlink:href="#glyph-0-22"
       x="212.76805"
       y="156.65515"
       id="use280" />
    <use
       xlink:href="#glyph-0-8"
       x="217.37567"
       y="156.65515"
       id="use282" />
  </g>
  <g
     fill="#000000"
     fill-opacity="1"
     id="g288">
    <use
       xlink:href="#glyph-0-1"
       x="219.41818"
       y="156.65515"
       id="use286" />
  </g>
  <g
     fill="#000000"
     fill-opacity="1"
     id="g292">
    <use
       xlink:href="#glyph-0-8"
       x="223.5032"
       y="156.65515"
       id="use290" />
  </g>
  <g
     fill="#000000"
     fill-opacity="1"
     id="g296">
    <use
       xlink:href="#glyph-0-13"
       x="225.54572"
       y="156.65515"
       id="use294" />
  </g>
  <g
     fill="#000000"
     fill-opacity="1"
     id="g300">
    <use
       xlink:href="#glyph-0-14"
       x="229.63074"
       y="156.65515"
       id="use298" />
  </g>
  <g
     fill="#000000"
     fill-opacity="1"
     id="g304">
    <use
       xlink:href="#glyph-0-15"
       x="235.98566"
       y="156.65515"
       id="use302" />
  </g>
  <g
     fill="#000000"
     fill-opacity="1"
     id="g308">
    <use
       xlink:href="#glyph-0-5"
       x="65.409615"
       y="119.17785"
       id="use306" />
  </g>
</svg>
